,subject,relation,obj,citations,db_url
120,ATM,increases,regulation of apoptotic process ,http://geneontology.org/docs/go-enrichment-analysis/,https://amp.pharm.mssm.edu/Enrichr/
175,ATM,increases,replicative senescence ,http://geneontology.org/docs/go-enrichment-analysis/,https://amp.pharm.mssm.edu/Enrichr/
194,ATM,increases,protein phosphorylation ,http://geneontology.org/docs/go-enrichment-analysis/,https://amp.pharm.mssm.edu/Enrichr/
203,ARID1A,increases,positive regulation of gene expression ,http://geneontology.org/docs/go-enrichment-analysis/,https://amp.pharm.mssm.edu/Enrichr/
222,ATM,increases,regulation of gene expression ,http://geneontology.org/docs/go-enrichment-analysis/,https://amp.pharm.mssm.edu/Enrichr/
229,ATM,increases,protein autophosphorylation ,http://geneontology.org/docs/go-enrichment-analysis/,https://amp.pharm.mssm.edu/Enrichr/
237,ARID1A,increases,"positive regulation of transcription, DNA-templated ",http://geneontology.org/docs/go-enrichment-analysis/,https://amp.pharm.mssm.edu/Enrichr/
328,ARID1A,increases,nucleosome organization ,http://geneontology.org/docs/go-enrichment-analysis/,https://amp.pharm.mssm.edu/Enrichr/
350,ARID1A,increases,positive regulation of nucleic acid-templated transcription ,http://geneontology.org/docs/go-enrichment-analysis/,https://amp.pharm.mssm.edu/Enrichr/
374,ARID1A,increases,chromatin remodeling ,http://geneontology.org/docs/go-enrichment-analysis/,https://amp.pharm.mssm.edu/Enrichr/
395,ARID1A,increases,regulation of transcription from RNA polymerase II promoter ,http://geneontology.org/docs/go-enrichment-analysis/,https://amp.pharm.mssm.edu/Enrichr/
433,ARID1A,increases,"regulation of transcription, DNA-templated ",http://geneontology.org/docs/go-enrichment-analysis/,https://amp.pharm.mssm.edu/Enrichr/
471,ATM,increases,response to ionizing radiation ,http://geneontology.org/docs/go-enrichment-analysis/,https://amp.pharm.mssm.edu/Enrichr/
475,ATM,increases,response to X-ray ,http://geneontology.org/docs/go-enrichment-analysis/,https://amp.pharm.mssm.edu/Enrichr/
480,ATM,increases,negative regulation of TORC1 signaling ,http://geneontology.org/docs/go-enrichment-analysis/,https://amp.pharm.mssm.edu/Enrichr/
491,ATM,increases,phosphorylation ,http://geneontology.org/docs/go-enrichment-analysis/,https://amp.pharm.mssm.edu/Enrichr/
495,ATM,increases,"DNA damage response, signal transduction by p53 class mediator ",http://geneontology.org/docs/go-enrichment-analysis/,https://amp.pharm.mssm.edu/Enrichr/
504,ATM,increases,spindle assembly checkpoint ,http://geneontology.org/docs/go-enrichment-analysis/,https://amp.pharm.mssm.edu/Enrichr/
506,ATM,increases,mitotic spindle assembly checkpoint ,http://geneontology.org/docs/go-enrichment-analysis/,https://amp.pharm.mssm.edu/Enrichr/
508,ATM,increases,mitotic spindle checkpoint ,http://geneontology.org/docs/go-enrichment-analysis/,https://amp.pharm.mssm.edu/Enrichr/
516,ATM,increases,cellular response to gamma radiation ,http://geneontology.org/docs/go-enrichment-analysis/,https://amp.pharm.mssm.edu/Enrichr/
520,ARID1A,increases,nucleosome disassembly ,http://geneontology.org/docs/go-enrichment-analysis/,https://amp.pharm.mssm.edu/Enrichr/
522,ARID1A,increases,chromatin disassembly ,http://geneontology.org/docs/go-enrichment-analysis/,https://amp.pharm.mssm.edu/Enrichr/
531,ARID1A,increases,protein-DNA complex disassembly ,http://geneontology.org/docs/go-enrichment-analysis/,https://amp.pharm.mssm.edu/Enrichr/
552,ATM,increases,positive regulation of programmed cell death ,http://geneontology.org/docs/go-enrichment-analysis/,https://amp.pharm.mssm.edu/Enrichr/
571,ATM,increases,response to gamma radiation ,http://geneontology.org/docs/go-enrichment-analysis/,https://amp.pharm.mssm.edu/Enrichr/
582,ATM,increases,regulation of TORC1 signaling ,http://geneontology.org/docs/go-enrichment-analysis/,https://amp.pharm.mssm.edu/Enrichr/
596,ATM,increases,positive regulation of apoptotic process ,http://geneontology.org/docs/go-enrichment-analysis/,https://amp.pharm.mssm.edu/Enrichr/
599,ATM,increases,positive regulation of telomere maintenance ,http://geneontology.org/docs/go-enrichment-analysis/,https://amp.pharm.mssm.edu/Enrichr/
601,ATM,increases,regulation of signal transduction by p53 class mediator ,http://geneontology.org/docs/go-enrichment-analysis/,https://amp.pharm.mssm.edu/Enrichr/
605,ATM,increases,DNA metabolic process ,http://geneontology.org/docs/go-enrichment-analysis/,https://amp.pharm.mssm.edu/Enrichr/
