[
    {
        "nanopub": {
            "id": "shradha_pat17_v1_PCViz_1",
            "type": {
                "name": "BEL",
                "version": "2.1.0"
            },
            "citation": {
                "uri": "https://www.ncbi.nlm.nih.gov/pubmed"
            },
            "assertions": [
                {
                    "subject": "p(HGNC:KRAS)",
                    "relation": "controls-phosphorylation-of",
                    "object": "p(HGNC:BRAF)"
                }
            ],
            "annotations": [
                {
                    "type": "Species",
                    "id": "TAX:9606",
                    "label": "human"
                }
            ],
            "database": {
                "uri_db": "https://www.ncbi.nlm.nih.gov/pubmed"
            },
            "metadata": {
                "project": "BMI593_BEL_NSCLC_Fall2019_pat17_v1",
                "gd_creator": "shradha_pat17_v1",
                "note": "KRAS acts as controls-phosphorylation-of of p(HGNC:BRAF). This relation may or may not hold true in the context of NSCLC."
            }
        }
    },
    {
        "nanopub": {
            "id": "shradha_pat17_v1_PCViz_2",
            "type": {
                "name": "BEL",
                "version": "2.1.0"
            },
            "citation": {
                "uri": "https://www.ncbi.nlm.nih.gov/pubmed"
            },
            "assertions": [
                {
                    "subject": "p(HGNC:KRAS)",
                    "relation": "controls-state-change-of",
                    "object": "p(HGNC:BRAF)"
                }
            ],
            "annotations": [
                {
                    "type": "Species",
                    "id": "TAX:9606",
                    "label": "human"
                }
            ],
            "database": {
                "uri_db": "https://www.ncbi.nlm.nih.gov/pubmed"
            },
            "metadata": {
                "project": "BMI593_BEL_NSCLC_Fall2019_pat17_v1",
                "gd_creator": "shradha_pat17_v1",
                "note": "KRAS acts as controls-state-change-of of p(HGNC:BRAF). This relation may or may not hold true in the context of NSCLC."
            }
        }
    },
    {
        "nanopub": {
            "id": "shradha_pat17_v1_PCViz_3",
            "type": {
                "name": "BEL",
                "version": "2.1.0"
            },
            "citation": {
                "uri": "https://www.ncbi.nlm.nih.gov/pubmed"
            },
            "assertions": [
                {
                    "subject": "p(HGNC:KRAS)",
                    "relation": "controls-transport-of",
                    "object": "p(HGNC:BRAF)"
                }
            ],
            "annotations": [
                {
                    "type": "Species",
                    "id": "TAX:9606",
                    "label": "human"
                }
            ],
            "database": {
                "uri_db": "https://www.ncbi.nlm.nih.gov/pubmed"
            },
            "metadata": {
                "project": "BMI593_BEL_NSCLC_Fall2019_pat17_v1",
                "gd_creator": "shradha_pat17_v1",
                "note": "KRAS acts as controls-transport-of of p(HGNC:BRAF). This relation may or may not hold true in the context of NSCLC."
            }
        }
    },
    {
        "nanopub": {
            "id": "shradha_pat17_v1_PCViz_4",
            "type": {
                "name": "BEL",
                "version": "2.1.0"
            },
            "citation": {
                "uri": "https://www.ncbi.nlm.nih.gov/pubmed"
            },
            "assertions": [
                {
                    "subject": "p(HGNC:KRAS)",
                    "relation": "in-complex-with",
                    "object": "p(HGNC:NF1)"
                }
            ],
            "annotations": [
                {
                    "type": "Species",
                    "id": "TAX:9606",
                    "label": "human"
                }
            ],
            "database": {
                "uri_db": "https://www.ncbi.nlm.nih.gov/pubmed"
            },
            "metadata": {
                "project": "BMI593_BEL_NSCLC_Fall2019_pat17_v1",
                "gd_creator": "shradha_pat17_v1",
                "note": "KRAS acts as in-complex-with of p(HGNC:NF1). This relation may or may not hold true in the context of NSCLC."
            }
        }
    },
    {
        "nanopub": {
            "id": "shradha_pat17_v1_PCViz_5",
            "type": {
                "name": "BEL",
                "version": "2.1.0"
            },
            "citation": {
                "uri": "https://www.ncbi.nlm.nih.gov/pubmed"
            },
            "assertions": [
                {
                    "subject": "p(HGNC:KRAS)",
                    "relation": "controls-state-change-of",
                    "object": "p(HGNC:PIK3CA)"
                }
            ],
            "annotations": [
                {
                    "type": "Species",
                    "id": "TAX:9606",
                    "label": "human"
                }
            ],
            "database": {
                "uri_db": "https://www.ncbi.nlm.nih.gov/pubmed"
            },
            "metadata": {
                "project": "BMI593_BEL_NSCLC_Fall2019_pat17_v1",
                "gd_creator": "shradha_pat17_v1",
                "note": "KRAS acts as controls-state-change-of of p(HGNC:PIK3CA). This relation may or may not hold true in the context of NSCLC."
            }
        }
    },
    {
        "nanopub": {
            "id": "shradha_pat17_v1_PCViz_6",
            "type": {
                "name": "BEL",
                "version": "2.1.0"
            },
            "citation": {
                "uri": "https://www.ncbi.nlm.nih.gov/pubmed"
            },
            "assertions": [
                {
                    "subject": "p(HGNC:KRAS)",
                    "relation": "in-complex-with",
                    "object": "p(HGNC:PIK3CA)"
                }
            ],
            "annotations": [
                {
                    "type": "Species",
                    "id": "TAX:9606",
                    "label": "human"
                }
            ],
            "database": {
                "uri_db": "https://www.ncbi.nlm.nih.gov/pubmed"
            },
            "metadata": {
                "project": "BMI593_BEL_NSCLC_Fall2019_pat17_v1",
                "gd_creator": "shradha_pat17_v1",
                "note": "KRAS acts as in-complex-with of p(HGNC:PIK3CA). This relation may or may not hold true in the context of NSCLC."
            }
        }
    },
    {
        "nanopub": {
            "id": "shradha_pat17_v1_PCViz_7",
            "type": {
                "name": "BEL",
                "version": "2.1.0"
            },
            "citation": {
                "uri": "https://www.ncbi.nlm.nih.gov/pubmed"
            },
            "assertions": [
                {
                    "subject": "p(HGNC:KRAS)",
                    "relation": "controls-state-change-of",
                    "object": "p(HGNC:TP53)"
                }
            ],
            "annotations": [
                {
                    "type": "Species",
                    "id": "TAX:9606",
                    "label": "human"
                }
            ],
            "database": {
                "uri_db": "https://www.ncbi.nlm.nih.gov/pubmed"
            },
            "metadata": {
                "project": "BMI593_BEL_NSCLC_Fall2019_pat17_v1",
                "gd_creator": "shradha_pat17_v1",
                "note": "KRAS acts as controls-state-change-of of p(HGNC:TP53). This relation may or may not hold true in the context of NSCLC."
            }
        }
    },
    {
        "nanopub": {
            "id": "shradha_pat17_v1_PCViz_8",
            "type": {
                "name": "BEL",
                "version": "2.1.0"
            },
            "citation": {
                "uri": "https://www.ncbi.nlm.nih.gov/pubmed"
            },
            "assertions": [
                {
                    "subject": "p(HGNC:MET)",
                    "relation": "controls-state-change-of",
                    "object": "p(HGNC:KRAS)"
                }
            ],
            "annotations": [
                {
                    "type": "Species",
                    "id": "TAX:9606",
                    "label": "human"
                }
            ],
            "database": {
                "uri_db": "https://www.ncbi.nlm.nih.gov/pubmed"
            },
            "metadata": {
                "project": "BMI593_BEL_NSCLC_Fall2019_pat17_v1",
                "gd_creator": "shradha_pat17_v1",
                "note": "MET acts as controls-state-change-of of p(HGNC:KRAS). This relation may or may not hold true in the context of NSCLC."
            }
        }
    },
    {
        "nanopub": {
            "id": "shradha_pat17_v1_PCViz_9",
            "type": {
                "name": "BEL",
                "version": "2.1.0"
            },
            "citation": {
                "uri": "https://www.ncbi.nlm.nih.gov/pubmed"
            },
            "assertions": [
                {
                    "subject": "p(HGNC:MET)",
                    "relation": "controls-state-change-of",
                    "object": "p(HGNC:PIK3CA)"
                }
            ],
            "annotations": [
                {
                    "type": "Species",
                    "id": "TAX:9606",
                    "label": "human"
                }
            ],
            "database": {
                "uri_db": "https://www.ncbi.nlm.nih.gov/pubmed"
            },
            "metadata": {
                "project": "BMI593_BEL_NSCLC_Fall2019_pat17_v1",
                "gd_creator": "shradha_pat17_v1",
                "note": "MET acts as controls-state-change-of of p(HGNC:PIK3CA). This relation may or may not hold true in the context of NSCLC."
            }
        }
    },
    {
        "nanopub": {
            "id": "shradha_pat17_v1_PCViz_10",
            "type": {
                "name": "BEL",
                "version": "2.1.0"
            },
            "citation": {
                "uri": "https://www.ncbi.nlm.nih.gov/pubmed"
            },
            "assertions": [
                {
                    "subject": "p(HGNC:MET)",
                    "relation": "in-complex-with",
                    "object": "p(HGNC:PIK3CA)"
                }
            ],
            "annotations": [
                {
                    "type": "Species",
                    "id": "TAX:9606",
                    "label": "human"
                }
            ],
            "database": {
                "uri_db": "https://www.ncbi.nlm.nih.gov/pubmed"
            },
            "metadata": {
                "project": "BMI593_BEL_NSCLC_Fall2019_pat17_v1",
                "gd_creator": "shradha_pat17_v1",
                "note": "MET acts as in-complex-with of p(HGNC:PIK3CA). This relation may or may not hold true in the context of NSCLC."
            }
        }
    }
]