,subject,relation,obj,citations,db_url
74,BRAF,in-complex-with,KRAS,https://www.ncbi.nlm.nih.gov/pubmed,https://www.ncbi.nlm.nih.gov/pubmed
120,CD86,in-complex-with,PIK3CA,https://www.ncbi.nlm.nih.gov/pubmed,https://www.ncbi.nlm.nih.gov/pubmed
196,DLG3,controls-state-change-of,KRAS,https://www.ncbi.nlm.nih.gov/pubmed,https://www.ncbi.nlm.nih.gov/pubmed
443,MAX,controls-expression-of,CDKN2B,https://www.ncbi.nlm.nih.gov/pubmed,https://www.ncbi.nlm.nih.gov/pubmed
444,MAX,in-complex-with,SMAD4,https://www.ncbi.nlm.nih.gov/pubmed,https://www.ncbi.nlm.nih.gov/pubmed
533,RAD50,controls-phosphorylation-of,TP53,https://www.ncbi.nlm.nih.gov/pubmed,https://www.ncbi.nlm.nih.gov/pubmed
534,RAD50,controls-state-change-of,TP53,https://www.ncbi.nlm.nih.gov/pubmed,https://www.ncbi.nlm.nih.gov/pubmed
606,SPTA1,controls-state-change-of,KRAS,https://www.ncbi.nlm.nih.gov/pubmed,https://www.ncbi.nlm.nih.gov/pubmed
