,subject,relation,obj,citations,db_url
44,KRAS,increases,positive regulation of protein phosphorylation ,http://geneontology.org/docs/go-enrichment-analysis/,https://amp.pharm.mssm.edu/Enrichr/
90,KRAS,increases,positive regulation of phosphorylation ,http://geneontology.org/docs/go-enrichment-analysis/,https://amp.pharm.mssm.edu/Enrichr/
185,KRAS,increases,regulation of cell proliferation ,http://geneontology.org/docs/go-enrichment-analysis/,https://amp.pharm.mssm.edu/Enrichr/
202,KRAS,increases,positive regulation of gene expression ,http://geneontology.org/docs/go-enrichment-analysis/,https://amp.pharm.mssm.edu/Enrichr/
211,KRAS,increases,MAPK cascade ,http://geneontology.org/docs/go-enrichment-analysis/,https://amp.pharm.mssm.edu/Enrichr/
223,KRAS,increases,regulation of gene expression ,http://geneontology.org/docs/go-enrichment-analysis/,https://amp.pharm.mssm.edu/Enrichr/
244,KRAS,increases,ERBB2 signaling pathway ,http://geneontology.org/docs/go-enrichment-analysis/,https://amp.pharm.mssm.edu/Enrichr/
249,KRAS,increases,small GTPase mediated signal transduction ,http://geneontology.org/docs/go-enrichment-analysis/,https://amp.pharm.mssm.edu/Enrichr/
301,KRAS,increases,positive regulation of cell proliferation ,http://geneontology.org/docs/go-enrichment-analysis/,https://amp.pharm.mssm.edu/Enrichr/
324,KRAS,increases,positive regulation of protein modification process ,http://geneontology.org/docs/go-enrichment-analysis/,https://amp.pharm.mssm.edu/Enrichr/
336,KRAS,increases,ERBB signaling pathway ,http://geneontology.org/docs/go-enrichment-analysis/,https://amp.pharm.mssm.edu/Enrichr/
362,KRAS,increases,positive regulation of cellular process ,http://geneontology.org/docs/go-enrichment-analysis/,https://amp.pharm.mssm.edu/Enrichr/
370,KRAS,increases,Ras protein signal transduction ,http://geneontology.org/docs/go-enrichment-analysis/,https://amp.pharm.mssm.edu/Enrichr/
407,KRAS,increases,regulation of protein phosphorylation ,http://geneontology.org/docs/go-enrichment-analysis/,https://amp.pharm.mssm.edu/Enrichr/
443,KRAS,increases,epidermal growth factor receptor signaling pathway ,http://geneontology.org/docs/go-enrichment-analysis/,https://amp.pharm.mssm.edu/Enrichr/
567,KRAS,increases,positive regulation of macromolecule metabolic process ,http://geneontology.org/docs/go-enrichment-analysis/,https://amp.pharm.mssm.edu/Enrichr/
