[
    {
        "nanopub": {
            "id": "shradha_pat12_v1_enrichR_GO_1",
            "type": {
                "name": "BEL",
                "version": "2.1.0"
            },
            "citation": {
                "uri": "http://geneontology.org/docs/go-enrichment-analysis/"
            },
            "assertions": [
                {
                    "subject": "p(HGNC:KRAS)",
                    "relation": "increases",
                    "object": "bp(GO:positive regulation of protein phosphorylation )"
                }
            ],
            "annotations": [
                {
                    "type": "Species",
                    "id": "TAX:9606",
                    "label": "human"
                }
            ],
            "database": {
                "uri_db": "https://amp.pharm.mssm.edu/Enrichr/"
            },
            "metadata": {
                "project": "BMI593_BEL_NSCLC_Fall2019_pat12_v1",
                "gd_creator": "shradha_pat12_v1",
                "note": "KRAS acts as increases of bp(GO:positive regulation of protein phosphorylation ). This relation may or may not hold true in the context of NSCLC."
            }
        }
    },
    {
        "nanopub": {
            "id": "shradha_pat12_v1_enrichR_GO_2",
            "type": {
                "name": "BEL",
                "version": "2.1.0"
            },
            "citation": {
                "uri": "http://geneontology.org/docs/go-enrichment-analysis/"
            },
            "assertions": [
                {
                    "subject": "p(HGNC:KRAS)",
                    "relation": "increases",
                    "object": "bp(GO:positive regulation of phosphorylation )"
                }
            ],
            "annotations": [
                {
                    "type": "Species",
                    "id": "TAX:9606",
                    "label": "human"
                }
            ],
            "database": {
                "uri_db": "https://amp.pharm.mssm.edu/Enrichr/"
            },
            "metadata": {
                "project": "BMI593_BEL_NSCLC_Fall2019_pat12_v1",
                "gd_creator": "shradha_pat12_v1",
                "note": "KRAS acts as increases of bp(GO:positive regulation of phosphorylation ). This relation may or may not hold true in the context of NSCLC."
            }
        }
    },
    {
        "nanopub": {
            "id": "shradha_pat12_v1_enrichR_GO_3",
            "type": {
                "name": "BEL",
                "version": "2.1.0"
            },
            "citation": {
                "uri": "http://geneontology.org/docs/go-enrichment-analysis/"
            },
            "assertions": [
                {
                    "subject": "p(HGNC:KRAS)",
                    "relation": "increases",
                    "object": "bp(GO:regulation of cell proliferation )"
                }
            ],
            "annotations": [
                {
                    "type": "Species",
                    "id": "TAX:9606",
                    "label": "human"
                }
            ],
            "database": {
                "uri_db": "https://amp.pharm.mssm.edu/Enrichr/"
            },
            "metadata": {
                "project": "BMI593_BEL_NSCLC_Fall2019_pat12_v1",
                "gd_creator": "shradha_pat12_v1",
                "note": "KRAS acts as increases of bp(GO:regulation of cell proliferation ). This relation may or may not hold true in the context of NSCLC."
            }
        }
    },
    {
        "nanopub": {
            "id": "shradha_pat12_v1_enrichR_GO_4",
            "type": {
                "name": "BEL",
                "version": "2.1.0"
            },
            "citation": {
                "uri": "http://geneontology.org/docs/go-enrichment-analysis/"
            },
            "assertions": [
                {
                    "subject": "p(HGNC:KRAS)",
                    "relation": "increases",
                    "object": "bp(GO:positive regulation of gene expression )"
                }
            ],
            "annotations": [
                {
                    "type": "Species",
                    "id": "TAX:9606",
                    "label": "human"
                }
            ],
            "database": {
                "uri_db": "https://amp.pharm.mssm.edu/Enrichr/"
            },
            "metadata": {
                "project": "BMI593_BEL_NSCLC_Fall2019_pat12_v1",
                "gd_creator": "shradha_pat12_v1",
                "note": "KRAS acts as increases of bp(GO:positive regulation of gene expression ). This relation may or may not hold true in the context of NSCLC."
            }
        }
    },
    {
        "nanopub": {
            "id": "shradha_pat12_v1_enrichR_GO_5",
            "type": {
                "name": "BEL",
                "version": "2.1.0"
            },
            "citation": {
                "uri": "http://geneontology.org/docs/go-enrichment-analysis/"
            },
            "assertions": [
                {
                    "subject": "p(HGNC:KRAS)",
                    "relation": "increases",
                    "object": "bp(GO:MAPK cascade )"
                }
            ],
            "annotations": [
                {
                    "type": "Species",
                    "id": "TAX:9606",
                    "label": "human"
                }
            ],
            "database": {
                "uri_db": "https://amp.pharm.mssm.edu/Enrichr/"
            },
            "metadata": {
                "project": "BMI593_BEL_NSCLC_Fall2019_pat12_v1",
                "gd_creator": "shradha_pat12_v1",
                "note": "KRAS acts as increases of bp(GO:MAPK cascade ). This relation may or may not hold true in the context of NSCLC."
            }
        }
    },
    {
        "nanopub": {
            "id": "shradha_pat12_v1_enrichR_GO_6",
            "type": {
                "name": "BEL",
                "version": "2.1.0"
            },
            "citation": {
                "uri": "http://geneontology.org/docs/go-enrichment-analysis/"
            },
            "assertions": [
                {
                    "subject": "p(HGNC:KRAS)",
                    "relation": "increases",
                    "object": "bp(GO:regulation of gene expression )"
                }
            ],
            "annotations": [
                {
                    "type": "Species",
                    "id": "TAX:9606",
                    "label": "human"
                }
            ],
            "database": {
                "uri_db": "https://amp.pharm.mssm.edu/Enrichr/"
            },
            "metadata": {
                "project": "BMI593_BEL_NSCLC_Fall2019_pat12_v1",
                "gd_creator": "shradha_pat12_v1",
                "note": "KRAS acts as increases of bp(GO:regulation of gene expression ). This relation may or may not hold true in the context of NSCLC."
            }
        }
    },
    {
        "nanopub": {
            "id": "shradha_pat12_v1_enrichR_GO_7",
            "type": {
                "name": "BEL",
                "version": "2.1.0"
            },
            "citation": {
                "uri": "http://geneontology.org/docs/go-enrichment-analysis/"
            },
            "assertions": [
                {
                    "subject": "p(HGNC:KRAS)",
                    "relation": "increases",
                    "object": "bp(GO:ERBB2 signaling pathway )"
                }
            ],
            "annotations": [
                {
                    "type": "Species",
                    "id": "TAX:9606",
                    "label": "human"
                }
            ],
            "database": {
                "uri_db": "https://amp.pharm.mssm.edu/Enrichr/"
            },
            "metadata": {
                "project": "BMI593_BEL_NSCLC_Fall2019_pat12_v1",
                "gd_creator": "shradha_pat12_v1",
                "note": "KRAS acts as increases of bp(GO:ERBB2 signaling pathway ). This relation may or may not hold true in the context of NSCLC."
            }
        }
    },
    {
        "nanopub": {
            "id": "shradha_pat12_v1_enrichR_GO_8",
            "type": {
                "name": "BEL",
                "version": "2.1.0"
            },
            "citation": {
                "uri": "http://geneontology.org/docs/go-enrichment-analysis/"
            },
            "assertions": [
                {
                    "subject": "p(HGNC:KRAS)",
                    "relation": "increases",
                    "object": "bp(GO:small GTPase mediated signal transduction )"
                }
            ],
            "annotations": [
                {
                    "type": "Species",
                    "id": "TAX:9606",
                    "label": "human"
                }
            ],
            "database": {
                "uri_db": "https://amp.pharm.mssm.edu/Enrichr/"
            },
            "metadata": {
                "project": "BMI593_BEL_NSCLC_Fall2019_pat12_v1",
                "gd_creator": "shradha_pat12_v1",
                "note": "KRAS acts as increases of bp(GO:small GTPase mediated signal transduction ). This relation may or may not hold true in the context of NSCLC."
            }
        }
    },
    {
        "nanopub": {
            "id": "shradha_pat12_v1_enrichR_GO_9",
            "type": {
                "name": "BEL",
                "version": "2.1.0"
            },
            "citation": {
                "uri": "http://geneontology.org/docs/go-enrichment-analysis/"
            },
            "assertions": [
                {
                    "subject": "p(HGNC:KRAS)",
                    "relation": "increases",
                    "object": "bp(GO:positive regulation of cell proliferation )"
                }
            ],
            "annotations": [
                {
                    "type": "Species",
                    "id": "TAX:9606",
                    "label": "human"
                }
            ],
            "database": {
                "uri_db": "https://amp.pharm.mssm.edu/Enrichr/"
            },
            "metadata": {
                "project": "BMI593_BEL_NSCLC_Fall2019_pat12_v1",
                "gd_creator": "shradha_pat12_v1",
                "note": "KRAS acts as increases of bp(GO:positive regulation of cell proliferation ). This relation may or may not hold true in the context of NSCLC."
            }
        }
    },
    {
        "nanopub": {
            "id": "shradha_pat12_v1_enrichR_GO_10",
            "type": {
                "name": "BEL",
                "version": "2.1.0"
            },
            "citation": {
                "uri": "http://geneontology.org/docs/go-enrichment-analysis/"
            },
            "assertions": [
                {
                    "subject": "p(HGNC:KRAS)",
                    "relation": "increases",
                    "object": "bp(GO:positive regulation of protein modification process )"
                }
            ],
            "annotations": [
                {
                    "type": "Species",
                    "id": "TAX:9606",
                    "label": "human"
                }
            ],
            "database": {
                "uri_db": "https://amp.pharm.mssm.edu/Enrichr/"
            },
            "metadata": {
                "project": "BMI593_BEL_NSCLC_Fall2019_pat12_v1",
                "gd_creator": "shradha_pat12_v1",
                "note": "KRAS acts as increases of bp(GO:positive regulation of protein modification process ). This relation may or may not hold true in the context of NSCLC."
            }
        }
    },
    {
        "nanopub": {
            "id": "shradha_pat12_v1_enrichR_GO_11",
            "type": {
                "name": "BEL",
                "version": "2.1.0"
            },
            "citation": {
                "uri": "http://geneontology.org/docs/go-enrichment-analysis/"
            },
            "assertions": [
                {
                    "subject": "p(HGNC:KRAS)",
                    "relation": "increases",
                    "object": "bp(GO:ERBB signaling pathway )"
                }
            ],
            "annotations": [
                {
                    "type": "Species",
                    "id": "TAX:9606",
                    "label": "human"
                }
            ],
            "database": {
                "uri_db": "https://amp.pharm.mssm.edu/Enrichr/"
            },
            "metadata": {
                "project": "BMI593_BEL_NSCLC_Fall2019_pat12_v1",
                "gd_creator": "shradha_pat12_v1",
                "note": "KRAS acts as increases of bp(GO:ERBB signaling pathway ). This relation may or may not hold true in the context of NSCLC."
            }
        }
    },
    {
        "nanopub": {
            "id": "shradha_pat12_v1_enrichR_GO_12",
            "type": {
                "name": "BEL",
                "version": "2.1.0"
            },
            "citation": {
                "uri": "http://geneontology.org/docs/go-enrichment-analysis/"
            },
            "assertions": [
                {
                    "subject": "p(HGNC:KRAS)",
                    "relation": "increases",
                    "object": "bp(GO:positive regulation of cellular process )"
                }
            ],
            "annotations": [
                {
                    "type": "Species",
                    "id": "TAX:9606",
                    "label": "human"
                }
            ],
            "database": {
                "uri_db": "https://amp.pharm.mssm.edu/Enrichr/"
            },
            "metadata": {
                "project": "BMI593_BEL_NSCLC_Fall2019_pat12_v1",
                "gd_creator": "shradha_pat12_v1",
                "note": "KRAS acts as increases of bp(GO:positive regulation of cellular process ). This relation may or may not hold true in the context of NSCLC."
            }
        }
    },
    {
        "nanopub": {
            "id": "shradha_pat12_v1_enrichR_GO_13",
            "type": {
                "name": "BEL",
                "version": "2.1.0"
            },
            "citation": {
                "uri": "http://geneontology.org/docs/go-enrichment-analysis/"
            },
            "assertions": [
                {
                    "subject": "p(HGNC:KRAS)",
                    "relation": "increases",
                    "object": "bp(GO:Ras protein signal transduction )"
                }
            ],
            "annotations": [
                {
                    "type": "Species",
                    "id": "TAX:9606",
                    "label": "human"
                }
            ],
            "database": {
                "uri_db": "https://amp.pharm.mssm.edu/Enrichr/"
            },
            "metadata": {
                "project": "BMI593_BEL_NSCLC_Fall2019_pat12_v1",
                "gd_creator": "shradha_pat12_v1",
                "note": "KRAS acts as increases of bp(GO:Ras protein signal transduction ). This relation may or may not hold true in the context of NSCLC."
            }
        }
    },
    {
        "nanopub": {
            "id": "shradha_pat12_v1_enrichR_GO_14",
            "type": {
                "name": "BEL",
                "version": "2.1.0"
            },
            "citation": {
                "uri": "http://geneontology.org/docs/go-enrichment-analysis/"
            },
            "assertions": [
                {
                    "subject": "p(HGNC:KRAS)",
                    "relation": "increases",
                    "object": "bp(GO:regulation of protein phosphorylation )"
                }
            ],
            "annotations": [
                {
                    "type": "Species",
                    "id": "TAX:9606",
                    "label": "human"
                }
            ],
            "database": {
                "uri_db": "https://amp.pharm.mssm.edu/Enrichr/"
            },
            "metadata": {
                "project": "BMI593_BEL_NSCLC_Fall2019_pat12_v1",
                "gd_creator": "shradha_pat12_v1",
                "note": "KRAS acts as increases of bp(GO:regulation of protein phosphorylation ). This relation may or may not hold true in the context of NSCLC."
            }
        }
    },
    {
        "nanopub": {
            "id": "shradha_pat12_v1_enrichR_GO_15",
            "type": {
                "name": "BEL",
                "version": "2.1.0"
            },
            "citation": {
                "uri": "http://geneontology.org/docs/go-enrichment-analysis/"
            },
            "assertions": [
                {
                    "subject": "p(HGNC:KRAS)",
                    "relation": "increases",
                    "object": "bp(GO:epidermal growth factor receptor signaling pathway )"
                }
            ],
            "annotations": [
                {
                    "type": "Species",
                    "id": "TAX:9606",
                    "label": "human"
                }
            ],
            "database": {
                "uri_db": "https://amp.pharm.mssm.edu/Enrichr/"
            },
            "metadata": {
                "project": "BMI593_BEL_NSCLC_Fall2019_pat12_v1",
                "gd_creator": "shradha_pat12_v1",
                "note": "KRAS acts as increases of bp(GO:epidermal growth factor receptor signaling pathway ). This relation may or may not hold true in the context of NSCLC."
            }
        }
    },
    {
        "nanopub": {
            "id": "shradha_pat12_v1_enrichR_GO_16",
            "type": {
                "name": "BEL",
                "version": "2.1.0"
            },
            "citation": {
                "uri": "http://geneontology.org/docs/go-enrichment-analysis/"
            },
            "assertions": [
                {
                    "subject": "p(HGNC:KRAS)",
                    "relation": "increases",
                    "object": "bp(GO:positive regulation of macromolecule metabolic process )"
                }
            ],
            "annotations": [
                {
                    "type": "Species",
                    "id": "TAX:9606",
                    "label": "human"
                }
            ],
            "database": {
                "uri_db": "https://amp.pharm.mssm.edu/Enrichr/"
            },
            "metadata": {
                "project": "BMI593_BEL_NSCLC_Fall2019_pat12_v1",
                "gd_creator": "shradha_pat12_v1",
                "note": "KRAS acts as increases of bp(GO:positive regulation of macromolecule metabolic process ). This relation may or may not hold true in the context of NSCLC."
            }
        }
    }
]