,subject,relation,obj,citations,db_url
648,CHEMBL3545246,inhibitor,BRAF,https://www.ncbi.nlm.nih.gov/pubmed/26208524.0,http://www.dgidb.org/interactions/dfc17557-9917-4440-9012-48286853d0f4#_summary
649,CHEMBL2029988,inhibitor,BRAF,https://www.ncbi.nlm.nih.gov/pubmed/22319199.0,http://www.dgidb.org/interactions/a3c6b5ca-1f2d-4345-a8fb-900b459fdfa1#_summary
650,CHEMBL558752,inhibitor,BRAF,https://www.ncbi.nlm.nih.gov/pubmed/20538618.0,http://www.dgidb.org/interactions/9134a806-2078-4744-ae90-4c0e18f175db#_summary
651,CHEMBL2028663,inhibitor,BRAF,https://www.ncbi.nlm.nih.gov/pubmed/23020132.0,http://www.dgidb.org/interactions/f4cac81f-663c-4048-b993-a6851e9b1c60#_summary
652,CHEMBL525191,inhibitor,BRAF,https://www.ncbi.nlm.nih.gov/pubmed/23549875.0,http://www.dgidb.org/interactions/acc516e4-e238-4ddb-bbe9-728394d9ab9f#_summary
653,CHEMBL373011,inhibitor,BRAF,https://www.ncbi.nlm.nih.gov/pubmed/nan,http://www.dgidb.org/interactions/9957024c-3e8f-4b4a-a6f4-d671a9e39c4c#_summary
654,CHEMBL3545195,inhibitor,BRAF,https://www.ncbi.nlm.nih.gov/pubmed/26343583.0,http://www.dgidb.org/interactions/41772af4-c21c-49b9-a3b4-8708ce1981b0#_summary
655,CHEMBL1230020,inhibitor,BRAF,https://www.ncbi.nlm.nih.gov/pubmed/20538618.0,http://www.dgidb.org/interactions/907f9db0-2ab6-4aca-8461-163ca3f9f8b7#_summary
656,CHEMBL3545005,inhibitor,BRAF,https://www.ncbi.nlm.nih.gov/pubmed/27834212.0,http://www.dgidb.org/interactions/2f1c5dce-0fd0-4a24-afd5-e2093584945c#_summary
657,CHEMBL1946170,inhibitor,BRAF,https://www.ncbi.nlm.nih.gov/pubmed/21170960.0,http://www.dgidb.org/interactions/36803a01-2f65-4df5-9bfe-9b3a63ec8698#_summary
658,CHEMBL477989,inhibitor,BRAF,https://www.ncbi.nlm.nih.gov/pubmed/20538618.0,http://www.dgidb.org/interactions/262655f2-609c-489b-b56a-b2acac07c06a#_summary
659,CHEMBL1336,inhibitor,BRAF,https://www.ncbi.nlm.nih.gov/pubmed/26619011.0,http://www.dgidb.org/interactions/be83cebf-1428-4b1a-8531-121cacce49cc#_summary
660,CHEMBL1229517,inhibitor,BRAF,https://www.ncbi.nlm.nih.gov/pubmed/26343583.0,http://www.dgidb.org/interactions/6b565dba-0693-42cf-8d37-c882e106df96#_summary
661,CHEMBL3301612,inhibitor,BRAF,https://www.ncbi.nlm.nih.gov/pubmed/19001320.0,http://www.dgidb.org/interactions/dbfc4570-11e4-4aa2-9329-3cda5a59c692#_summary
662,CHEMBL3545296,inhibitor,BRAF,https://www.ncbi.nlm.nih.gov/pubmed/nan,http://www.dgidb.org/interactions/d0b192f6-a9e5-40d6-9022-cb2969986c1c#_summary
663,CHEMBL3545080,inhibitor,BRAF,https://www.ncbi.nlm.nih.gov/pubmed/nan,http://www.dgidb.org/interactions/29fa09d6-925d-40ef-aedb-eed716ab9812#_summary
664,CHEMBL3545027,inhibitor,BRAF,https://www.ncbi.nlm.nih.gov/pubmed/nan,http://www.dgidb.org/interactions/e3bdc1c1-ba36-4325-9838-abb010c6bae0#_summary
665,CHEMBL523411,inhibitor,BRAF,https://www.ncbi.nlm.nih.gov/pubmed/nan,http://www.dgidb.org/interactions/d29ba82b-2696-41a5-a7d2-3c44aab0c3d2#_summary
666,CHEMBL2105729,inhibitor,BRAF,https://www.ncbi.nlm.nih.gov/pubmed/nan,http://www.dgidb.org/interactions/263cbb0f-5326-4a82-ac4c-e01a2d0b8079#_summary
667,CHEMBL1201182,inhibitor,BRAF,https://www.ncbi.nlm.nih.gov/pubmed/20586710.0,http://www.dgidb.org/interactions/ae506667-6595-412a-86c5-6ba1be511203#_summary
668,CHEMBL3348923,inhibitor,BRAF,https://www.ncbi.nlm.nih.gov/pubmed/nan,http://www.dgidb.org/interactions/4aba7874-98d1-4d86-8dc6-2d608fa5f47f#_summary
669,CHEMBL1421,inhibitor,BRAF,https://www.ncbi.nlm.nih.gov/pubmed/26619011.0,http://www.dgidb.org/interactions/30a63880-5ae8-49fb-9ee1-bb91e3145187#_summary
670,CHEMBL1200485,inhibitor,BRAF,https://www.ncbi.nlm.nih.gov/pubmed/nan,http://www.dgidb.org/interactions/32db49e7-906b-49d1-95a5-e288a73c0535#_summary
671,CHEMBL3545263,inhibitor,BRAF,https://www.ncbi.nlm.nih.gov/pubmed/nan,http://www.dgidb.org/interactions/23b9d370-2380-488c-86b7-4c83fd55d995#_summary
672,CHEMBL1289601,association,BRAF,https://www.ncbi.nlm.nih.gov/pubmed/26169970.0,http://www.dgidb.org/interactions/098ff880-fcbc-449e-b23c-ee2991aec361#_summary
673,CHEMBL941,association,BRAF,https://www.ncbi.nlm.nih.gov/pubmed/27924459.0,http://www.dgidb.org/interactions/3820485a-c000-46d7-95eb-00414bc618fe#_summary
674,CHEMBL3218575,association,BRAF,https://www.ncbi.nlm.nih.gov/pubmed/25637314.0,http://www.dgidb.org/interactions/4ab4937b-4535-42b3-8292-657653621b60#_summary
675,CHEMBL526479,association,BRAF,https://www.ncbi.nlm.nih.gov/pubmed/10592235.0,http://www.dgidb.org/interactions/b71e1031-9b4c-4eae-a32a-e92f0be95480#_summary
676,CHEMBL458997,association,BRAF,https://www.ncbi.nlm.nih.gov/pubmed/26090892.0,http://www.dgidb.org/interactions/fce8f0e8-a5ca-467d-8931-394fc65c86e7#_summary
677,CHEMBL2396661,association,BRAF,https://www.ncbi.nlm.nih.gov/pubmed/27659046.0,http://www.dgidb.org/interactions/e6028331-0b36-423d-bdd4-ee67cfc7e297#_summary
678,CHEMBL1289494,association,BRAF,https://www.ncbi.nlm.nih.gov/pubmed/26461489.0,http://www.dgidb.org/interactions/73685dbc-e26c-4142-b488-aa4bff162929#_summary
679,CHEMBL1614766,association,BRAF,https://www.ncbi.nlm.nih.gov/pubmed/26438159.0,http://www.dgidb.org/interactions/ea789cb7-9ee6-4a39-b09d-3c529ba2b34e#_summary
680,CHEMBL2103879,association,BRAF,https://www.ncbi.nlm.nih.gov/pubmed/24398428.0,http://www.dgidb.org/interactions/c367916f-abfb-4a41-b363-c55110931336#_summary
681,CHEMBL1097999,association,BRAF,https://www.ncbi.nlm.nih.gov/pubmed/24448821.0,http://www.dgidb.org/interactions/de65d7ad-af22-4dbf-8e28-e3e84abfb2b6#_summary
682,CHEMBL185,association,BRAF,https://www.ncbi.nlm.nih.gov/pubmed/27626067.0,http://www.dgidb.org/interactions/6e1d8baf-36f3-4eff-969a-43e42898fae9#_summary
683,CHEMBL3137343,association,BRAF,https://www.ncbi.nlm.nih.gov/pubmed/26645196.0,http://www.dgidb.org/interactions/9227b2f5-c7e2-4b19-8269-bb676e484639#_summary
684,CHEMBL3188551,association,BRAF,https://www.ncbi.nlm.nih.gov/pubmed/26577700.0,http://www.dgidb.org/interactions/b0906d4a-0d6d-4105-b7c9-d307c2c1e237#_summary
685,CHEMBL98,association,BRAF,https://www.ncbi.nlm.nih.gov/pubmed/27924459.0,http://www.dgidb.org/interactions/a0571631-bcc2-41f9-a5e8-9ce2b7c64640#_summary
686,CHEMBL1201208,association,BRAF,https://www.ncbi.nlm.nih.gov/pubmed/26137449.0,http://www.dgidb.org/interactions/418d678f-b3f2-48d9-a823-9de351cd1494#_summary
687,CHEMBL2108738,association,BRAF,https://www.ncbi.nlm.nih.gov/pubmed/nan,http://www.dgidb.org/interactions/da8f550f-2417-4cc5-9059-6d10f15b1ea0#_summary
688,CHEMBL2017974,association,BRAF,https://www.ncbi.nlm.nih.gov/pubmed/27307593.0,http://www.dgidb.org/interactions/2b36a37c-2683-41ec-88db-64864e3375cf#_summary
689,CHEMBL1684984,association,BRAF,https://www.ncbi.nlm.nih.gov/pubmed/21558396.0,http://www.dgidb.org/interactions/d02a45f5-ce82-4c5f-a8a4-30b1e86d2f6c#_summary
690,CHEMBL1236962,association,BRAF,https://www.ncbi.nlm.nih.gov/pubmed/22389471.0,http://www.dgidb.org/interactions/061c1d28-8773-452e-8e1e-041f86b99dc4#_summary
691,CHEMBL189963,association,BRAF,https://www.ncbi.nlm.nih.gov/pubmed/27488531.0,http://www.dgidb.org/interactions/3037fbe4-ce25-4c8a-b59d-e6836ee63916#_summary
692,CHEMBL3188267,association,BRAF,https://www.ncbi.nlm.nih.gov/pubmed/28783719.0,http://www.dgidb.org/interactions/65abde73-04b7-46ad-84eb-8b181a2b5111#_summary
693,CHEMBL2107832,association,BRAF,https://www.ncbi.nlm.nih.gov/pubmed/23629727.0,http://www.dgidb.org/interactions/18f45846-1c34-4068-aca8-8082a47f8d25#_summary
694,CHEMBL1679,association,BRAF,https://www.ncbi.nlm.nih.gov/pubmed/27626067.0,http://www.dgidb.org/interactions/d8748c8e-6997-4485-bcbc-c0e7f170be3d#_summary
695,CHEMBL554,association,BRAF,https://www.ncbi.nlm.nih.gov/pubmed/21464044.0,http://www.dgidb.org/interactions/6b85a6f3-426d-40c2-9152-1a00475f4f00#_summary
696,CHEMBL3545422,association,BRAF,https://www.ncbi.nlm.nih.gov/pubmed/26469692.0,http://www.dgidb.org/interactions/14b54f29-929a-49fe-b967-930c82ce2d9d#_summary
697,CHEMBL2001019,association,BRAF,https://www.ncbi.nlm.nih.gov/pubmed/27659046.0,http://www.dgidb.org/interactions/a15aa277-6c7a-4fc5-8329-cbe251b39193#_summary
698,CHEMBL1201827,association,BRAF,https://www.ncbi.nlm.nih.gov/pubmed/23020132.0,http://www.dgidb.org/interactions/cb43bd4f-f037-4eac-b41d-0c5380ffbc1f#_summary
699,CHEMBL217354,association,BRAF,https://www.ncbi.nlm.nih.gov/pubmed/25665005.0,http://www.dgidb.org/interactions/e1516c71-5a10-4a86-9468-6aefa6937446#_summary
700,CHEMBL483254,association,BRAF,https://www.ncbi.nlm.nih.gov/pubmed/21464044.0,http://www.dgidb.org/interactions/39672711-3a82-4623-867e-975eaf81508e#_summary
701,CHEMBL1173655,association,BRAF,https://www.ncbi.nlm.nih.gov/pubmed/26916115.0,http://www.dgidb.org/interactions/cba16140-f4c1-45b1-a649-96a046dc40e7#_summary
702,CHEMBL2103875,association,BRAF,https://www.ncbi.nlm.nih.gov/pubmed/26343583.0,http://www.dgidb.org/interactions/c349436c-5008-4e7e-9a01-5cf4afb4e08d#_summary
703,CHEMBL3545008,association,BRAF,https://www.ncbi.nlm.nih.gov/pubmed/27196754.0,http://www.dgidb.org/interactions/c809bce2-f2eb-4cd3-8c5e-82f2d36bb2f3#_summary
704,CHEMBL481,association,BRAF,https://www.ncbi.nlm.nih.gov/pubmed/28783719.0,http://www.dgidb.org/interactions/e41df87f-f727-4e05-8397-ec202e538a1e#_summary
705,CHEMBL3545056,association,BRAF,https://www.ncbi.nlm.nih.gov/pubmed/26272063.0,http://www.dgidb.org/interactions/e4cdc989-f193-4267-8d8e-178ec4bd57bb#_summary
706,CHEMBL586701,association,BRAF,https://www.ncbi.nlm.nih.gov/pubmed/26137449.0,http://www.dgidb.org/interactions/ba292e5e-a176-48cb-b69f-78be6570160c#_summary
707,CHEMBL105442,association,BRAF,https://www.ncbi.nlm.nih.gov/pubmed/20538618.0,http://www.dgidb.org/interactions/2887ee87-c6ef-4850-a3e8-023cad02fb4d#_summary
708,CHEMBL428647,association,BRAF,https://www.ncbi.nlm.nih.gov/pubmed/26324360.0,http://www.dgidb.org/interactions/6191f18d-3ace-48ba-80f2-26710929fb8c#_summary
709,CHEMBL1201577,association,BRAF,https://www.ncbi.nlm.nih.gov/pubmed/23020132.0,http://www.dgidb.org/interactions/83964e78-ea0f-40c2-b76a-78f5c110b717#_summary
710,CHEMBL3545218,association,BRAF,https://www.ncbi.nlm.nih.gov/pubmed/nan,http://www.dgidb.org/interactions/15e9c43a-f870-435f-a785-1a3fbfa7490d#_summary
711,CHEMBL513909,association,BRAF,https://www.ncbi.nlm.nih.gov/pubmed/26573800.0,http://www.dgidb.org/interactions/8fd7ab17-e9b5-442a-86c7-360a18014c81#_summary
712,CHEMBL3707227,association,BRAF,https://www.ncbi.nlm.nih.gov/pubmed/nan,http://www.dgidb.org/interactions/e343e571-993d-4007-893d-7d72895e740f#_summary
713,CHEMBL601719,association,BRAF,https://www.ncbi.nlm.nih.gov/pubmed/nan,http://www.dgidb.org/interactions/ee2683a6-cb94-4106-8d05-07ca42431e8f#_summary
714,CHEMBL3187723,association,BRAF,https://www.ncbi.nlm.nih.gov/pubmed/19001320.0,http://www.dgidb.org/interactions/aa0f5962-b45c-46e7-b71e-99384646814c#_summary
715,CHEMBL507361,association,BRAF,https://www.ncbi.nlm.nih.gov/pubmed/26272063.0,http://www.dgidb.org/interactions/0d4c969d-18eb-43ee-8b63-fbc8ff36adbb#_summary
716,CHEMBL3545110,association,BRAF,https://www.ncbi.nlm.nih.gov/pubmed/28351928.0,http://www.dgidb.org/interactions/2d0a106d-93c3-4176-8df4-62176e865ffd#_summary
717,CHEMBL1231206,association,BRAF,https://www.ncbi.nlm.nih.gov/pubmed/26140595.0,http://www.dgidb.org/interactions/3d8e459f-0a01-41dc-b685-ee14ab657fe1#_summary
718,CHEMBL98350,association,BRAF,https://www.ncbi.nlm.nih.gov/pubmed/23039341.0,http://www.dgidb.org/interactions/b90b5681-a8a1-4338-90ef-c8f2b947e676#_summary
719,CHEMBL414804,association,BRAF,https://www.ncbi.nlm.nih.gov/pubmed/26637369.0,http://www.dgidb.org/interactions/78b93063-3795-4b31-8a2a-18b9532904c0#_summary
720,CHEMBL1879463,association,BRAF,https://www.ncbi.nlm.nih.gov/pubmed/23549875.0,http://www.dgidb.org/interactions/701f4855-6a83-4435-9968-bab5ec49a25d#_summary
721,CHEMBL1614701,association,BRAF,https://www.ncbi.nlm.nih.gov/pubmed/26343583.0,http://www.dgidb.org/interactions/3866c32a-1cd1-4d52-8c92-0a0ffefc9ce2#_summary
722,CHEMBL1201585,association,BRAF,https://www.ncbi.nlm.nih.gov/pubmed/27626067.0,http://www.dgidb.org/interactions/eb32c412-39db-4382-939e-29ffe8f68956#_summary
723,CHEMBL592445,association,BRAF,https://www.ncbi.nlm.nih.gov/pubmed/24042735.0,http://www.dgidb.org/interactions/b115abdb-0d93-48ad-b4a0-e17bfe8873de#_summary
724,CHEMBL443684,association,BRAF,https://www.ncbi.nlm.nih.gov/pubmed/27659046.0,http://www.dgidb.org/interactions/49d6c0ea-421b-4cdd-8e20-ddfa1a143348#_summary
725,CHEMBL180022,association,BRAF,https://www.ncbi.nlm.nih.gov/pubmed/26243863.0,http://www.dgidb.org/interactions/1552c750-a7d5-469f-996d-354e6a5e6e97#_summary
726,CHEMBL3137336,association,BRAF,https://www.ncbi.nlm.nih.gov/pubmed/24265152.0,http://www.dgidb.org/interactions/1ed1cb9d-1508-422d-a6d1-fef7181039a9#_summary
727,CHEMBL2216870,association,BRAF,https://www.ncbi.nlm.nih.gov/pubmed/26137449.0,http://www.dgidb.org/interactions/aa205e58-e996-496c-baf5-3b191ee54cb9#_summary
728,CHEMBL1079175,association,BRAF,https://www.ncbi.nlm.nih.gov/pubmed/24265152.0,http://www.dgidb.org/interactions/88cbe7a2-de34-44e3-ae32-1337b7ad52f5#_summary
729,CHEMBL408194,association,BRAF,https://www.ncbi.nlm.nih.gov/pubmed/22460902.0,http://www.dgidb.org/interactions/29386154-eacf-48dc-823f-5d580dd4c16b#_summary
730,CHEMBL491473,association,BRAF,https://www.ncbi.nlm.nih.gov/pubmed/26461489.0,http://www.dgidb.org/interactions/a8d75d8c-3f90-4ef5-b77b-fac51e522621#_summary
731,CHEMBL2165191,association,BRAF,https://www.ncbi.nlm.nih.gov/pubmed/26577700.0,http://www.dgidb.org/interactions/07e53563-f9a1-433d-9b0e-b722af173631#_summary
732,CHEMBL1908360,association,BRAF,https://www.ncbi.nlm.nih.gov/pubmed/23629727.0,http://www.dgidb.org/interactions/3432a09f-2985-4dfa-8c5c-291d6b41d00f#_summary
733,CHEMBL53463,association,BRAF,https://www.ncbi.nlm.nih.gov/pubmed/27924459.0,http://www.dgidb.org/interactions/8696438a-a99f-4116-b180-bca2e5d4c895#_summary
734,CHEMBL1201583,association,BRAF,https://www.ncbi.nlm.nih.gov/pubmed/21216929.0,http://www.dgidb.org/interactions/00b28a08-9028-41bf-bcc5-44ae2659f895#_summary
735,CHEMBL3545158,association,BRAF,https://www.ncbi.nlm.nih.gov/pubmed/25939769.0,http://www.dgidb.org/interactions/9a7cbf49-cfec-48be-a6a8-590762d38060#_summary
736,CHEMBL521851,association,BRAF,https://www.ncbi.nlm.nih.gov/pubmed/24265153.0,http://www.dgidb.org/interactions/43557784-57dd-4276-a5a4-f13f3d9b982e#_summary
737,CHEMBL2204502,association,BRAF,https://www.ncbi.nlm.nih.gov/pubmed/22351686.0,http://www.dgidb.org/interactions/439f9d4b-f44c-4433-a84a-48a9643a9979#_summary
738,CHEMBL1615025,association,BRAF,https://www.ncbi.nlm.nih.gov/pubmed/22798288.0,http://www.dgidb.org/interactions/b3646eed-9783-444d-b581-6ece2ca44f8a#_summary
739,CHEMBL551064,association,BRAF,https://www.ncbi.nlm.nih.gov/pubmed/26577700.0,http://www.dgidb.org/interactions/43ba6970-b3e1-41e6-b215-0734e685a002#_summary
740,CHEMBL3545137,association,BRAF,https://www.ncbi.nlm.nih.gov/pubmed/26140595.0,http://www.dgidb.org/interactions/5d96ec5b-0720-4aab-94db-36c45101f960#_summary
741,CHEMBL217092,association,BRAF,https://www.ncbi.nlm.nih.gov/pubmed/23242808.0,http://www.dgidb.org/interactions/d1dbd340-6ebf-4ebc-b332-8d4add92570d#_summary
742,CHEMBL2146883,association,BRAF,https://www.ncbi.nlm.nih.gov/pubmed/23020132.0,http://www.dgidb.org/interactions/429ca465-d6dc-481c-91d0-03ecaa62453c#_summary
743,CHEMBL939,association,BRAF,https://www.ncbi.nlm.nih.gov/pubmed/23242808.0,http://www.dgidb.org/interactions/d9557466-75e2-483d-87ee-fd6446305630#_summary
744,CHEMBL3137309,association,BRAF,https://www.ncbi.nlm.nih.gov/pubmed/27974663.0,http://www.dgidb.org/interactions/a710dbaf-9eb3-4819-8531-a74684dec316#_summary
745,CHEMBL2138601,association,BRAF,https://www.ncbi.nlm.nih.gov/pubmed/19706763.0,http://www.dgidb.org/interactions/4aa0d0a8-4a59-4e68-805c-0ee1f74917b8#_summary
746,CHEMBL2018302,association,BRAF,https://www.ncbi.nlm.nih.gov/pubmed/25957812.0,http://www.dgidb.org/interactions/d73e4d5c-1cb4-4483-89b0-ebdb0bdd4670#_summary
747,CHEMBL553,association,BRAF,https://www.ncbi.nlm.nih.gov/pubmed/27659046.0,http://www.dgidb.org/interactions/5e6faa05-f56c-49a0-9669-59ce181c33e0#_summary
