,subject,relation,obj,citations,db_url
7,EPHA3,increases,negative regulation of cell communication ,http://geneontology.org/docs/go-enrichment-analysis/,https://amp.pharm.mssm.edu/Enrichr/
17,EPHA3,increases,negative regulation of response to stimulus ,http://geneontology.org/docs/go-enrichment-analysis/,https://amp.pharm.mssm.edu/Enrichr/
26,EPHA3,increases,negative regulation of signaling ,http://geneontology.org/docs/go-enrichment-analysis/,https://amp.pharm.mssm.edu/Enrichr/
35,EPHA3,increases,regulation of kinase activity ,http://geneontology.org/docs/go-enrichment-analysis/,https://amp.pharm.mssm.edu/Enrichr/
46,TP53,increases,positive regulation of protein phosphorylation ,http://geneontology.org/docs/go-enrichment-analysis/,https://amp.pharm.mssm.edu/Enrichr/
47,EPHA3,increases,positive regulation of protein phosphorylation ,http://geneontology.org/docs/go-enrichment-analysis/,https://amp.pharm.mssm.edu/Enrichr/
57,EPHA3,increases,regulation of ERK1 and ERK2 cascade ,http://geneontology.org/docs/go-enrichment-analysis/,https://amp.pharm.mssm.edu/Enrichr/
65,EPHA3,increases,positive regulation of kinase activity ,http://geneontology.org/docs/go-enrichment-analysis/,https://amp.pharm.mssm.edu/Enrichr/
74,EPHA3,increases,positive regulation of ERK1 and ERK2 cascade ,http://geneontology.org/docs/go-enrichment-analysis/,https://amp.pharm.mssm.edu/Enrichr/
83,EPHA3,increases,regulation of MAPK cascade ,http://geneontology.org/docs/go-enrichment-analysis/,https://amp.pharm.mssm.edu/Enrichr/
92,EPHA3,increases,positive regulation of phosphorylation ,http://geneontology.org/docs/go-enrichment-analysis/,https://amp.pharm.mssm.edu/Enrichr/
100,EPHA3,increases,positive regulation of transferase activity ,http://geneontology.org/docs/go-enrichment-analysis/,https://amp.pharm.mssm.edu/Enrichr/
109,EPHA3,increases,regulation of signal transduction ,http://geneontology.org/docs/go-enrichment-analysis/,https://amp.pharm.mssm.edu/Enrichr/
122,TP53,increases,regulation of apoptotic process ,http://geneontology.org/docs/go-enrichment-analysis/,https://amp.pharm.mssm.edu/Enrichr/
123,EPHA3,increases,regulation of apoptotic process ,http://geneontology.org/docs/go-enrichment-analysis/,https://amp.pharm.mssm.edu/Enrichr/
132,TP53,increases,negative regulation of apoptotic process ,http://geneontology.org/docs/go-enrichment-analysis/,https://amp.pharm.mssm.edu/Enrichr/
133,EPHA3,increases,negative regulation of apoptotic process ,http://geneontology.org/docs/go-enrichment-analysis/,https://amp.pharm.mssm.edu/Enrichr/
142,EPHA3,increases,negative regulation of signal transduction ,http://geneontology.org/docs/go-enrichment-analysis/,https://amp.pharm.mssm.edu/Enrichr/
151,TP53,increases,negative regulation of programmed cell death ,http://geneontology.org/docs/go-enrichment-analysis/,https://amp.pharm.mssm.edu/Enrichr/
152,EPHA3,increases,negative regulation of programmed cell death ,http://geneontology.org/docs/go-enrichment-analysis/,https://amp.pharm.mssm.edu/Enrichr/
161,EPHA3,increases,positive regulation of MAPK cascade ,http://geneontology.org/docs/go-enrichment-analysis/,https://amp.pharm.mssm.edu/Enrichr/
170,TP53,increases,positive regulation of intracellular signal transduction ,http://geneontology.org/docs/go-enrichment-analysis/,https://amp.pharm.mssm.edu/Enrichr/
171,EPHA3,increases,positive regulation of intracellular signal transduction ,http://geneontology.org/docs/go-enrichment-analysis/,https://amp.pharm.mssm.edu/Enrichr/
176,TP53,increases,replicative senescence ,http://geneontology.org/docs/go-enrichment-analysis/,https://amp.pharm.mssm.edu/Enrichr/
186,TP53,increases,regulation of cell proliferation ,http://geneontology.org/docs/go-enrichment-analysis/,https://amp.pharm.mssm.edu/Enrichr/
195,EPHA3,increases,protein phosphorylation ,http://geneontology.org/docs/go-enrichment-analysis/,https://amp.pharm.mssm.edu/Enrichr/
204,TP53,increases,positive regulation of gene expression ,http://geneontology.org/docs/go-enrichment-analysis/,https://amp.pharm.mssm.edu/Enrichr/
224,TP53,increases,regulation of gene expression ,http://geneontology.org/docs/go-enrichment-analysis/,https://amp.pharm.mssm.edu/Enrichr/
239,TP53,increases,"positive regulation of transcription, DNA-templated ",http://geneontology.org/docs/go-enrichment-analysis/,https://amp.pharm.mssm.edu/Enrichr/
250,TP53,increases,small GTPase mediated signal transduction ,http://geneontology.org/docs/go-enrichment-analysis/,https://amp.pharm.mssm.edu/Enrichr/
254,TP53,increases,regulation of cell growth ,http://geneontology.org/docs/go-enrichment-analysis/,https://amp.pharm.mssm.edu/Enrichr/
260,TP53,increases,negative regulation of cell growth ,http://geneontology.org/docs/go-enrichment-analysis/,https://amp.pharm.mssm.edu/Enrichr/
268,TP53,increases,negative regulation of cellular process ,http://geneontology.org/docs/go-enrichment-analysis/,https://amp.pharm.mssm.edu/Enrichr/
276,TP53,increases,negative regulation of cell proliferation ,http://geneontology.org/docs/go-enrichment-analysis/,https://amp.pharm.mssm.edu/Enrichr/
280,TP53,increases,negative regulation of growth ,http://geneontology.org/docs/go-enrichment-analysis/,https://amp.pharm.mssm.edu/Enrichr/
284,EPHA3,increases,peptidyl-tyrosine modification ,http://geneontology.org/docs/go-enrichment-analysis/,https://amp.pharm.mssm.edu/Enrichr/
295,EPHA3,increases,transmembrane receptor protein tyrosine kinase signaling pathway ,http://geneontology.org/docs/go-enrichment-analysis/,https://amp.pharm.mssm.edu/Enrichr/
309,TP53,increases,positive regulation of transcription from RNA polymerase II promoter ,http://geneontology.org/docs/go-enrichment-analysis/,https://amp.pharm.mssm.edu/Enrichr/
316,TP53,increases,positive regulation of pri-miRNA transcription from RNA polymerase II promoter ,http://geneontology.org/docs/go-enrichment-analysis/,https://amp.pharm.mssm.edu/Enrichr/
332,EPHA3,increases,peptidyl-tyrosine phosphorylation ,http://geneontology.org/docs/go-enrichment-analysis/,https://amp.pharm.mssm.edu/Enrichr/
351,TP53,increases,positive regulation of nucleic acid-templated transcription ,http://geneontology.org/docs/go-enrichment-analysis/,https://amp.pharm.mssm.edu/Enrichr/
355,TP53,increases,regulation of pri-miRNA transcription from RNA polymerase II promoter ,http://geneontology.org/docs/go-enrichment-analysis/,https://amp.pharm.mssm.edu/Enrichr/
371,TP53,increases,Ras protein signal transduction ,http://geneontology.org/docs/go-enrichment-analysis/,https://amp.pharm.mssm.edu/Enrichr/
381,TP53,increases,negative regulation of gene expression ,http://geneontology.org/docs/go-enrichment-analysis/,https://amp.pharm.mssm.edu/Enrichr/
385,TP53,increases,signal transduction by p53 class mediator ,http://geneontology.org/docs/go-enrichment-analysis/,https://amp.pharm.mssm.edu/Enrichr/
397,TP53,increases,regulation of transcription from RNA polymerase II promoter ,http://geneontology.org/docs/go-enrichment-analysis/,https://amp.pharm.mssm.edu/Enrichr/
426,EPHA3,increases,regulation of cell-matrix adhesion ,http://geneontology.org/docs/go-enrichment-analysis/,https://amp.pharm.mssm.edu/Enrichr/
434,TP53,increases,"regulation of transcription, DNA-templated ",http://geneontology.org/docs/go-enrichment-analysis/,https://amp.pharm.mssm.edu/Enrichr/
472,TP53,increases,response to ionizing radiation ,http://geneontology.org/docs/go-enrichment-analysis/,https://amp.pharm.mssm.edu/Enrichr/
476,TP53,increases,response to X-ray ,http://geneontology.org/docs/go-enrichment-analysis/,https://amp.pharm.mssm.edu/Enrichr/
486,EPHA3,increases,regulation of hydrolase activity ,http://geneontology.org/docs/go-enrichment-analysis/,https://amp.pharm.mssm.edu/Enrichr/
496,TP53,increases,"DNA damage response, signal transduction by p53 class mediator ",http://geneontology.org/docs/go-enrichment-analysis/,https://amp.pharm.mssm.edu/Enrichr/
517,TP53,increases,cellular response to gamma radiation ,http://geneontology.org/docs/go-enrichment-analysis/,https://amp.pharm.mssm.edu/Enrichr/
519,TP53,increases,negative regulation of fibroblast proliferation ,http://geneontology.org/docs/go-enrichment-analysis/,https://amp.pharm.mssm.edu/Enrichr/
525,TP53,increases,positive regulation of neuron apoptotic process ,http://geneontology.org/docs/go-enrichment-analysis/,https://amp.pharm.mssm.edu/Enrichr/
526,TP53,increases,positive regulation of protein localization to membrane ,http://geneontology.org/docs/go-enrichment-analysis/,https://amp.pharm.mssm.edu/Enrichr/
527,EPHA3,increases,positive regulation of protein localization to membrane ,http://geneontology.org/docs/go-enrichment-analysis/,https://amp.pharm.mssm.edu/Enrichr/
540,TP53,increases,negative regulation of nucleic acid-templated transcription ,http://geneontology.org/docs/go-enrichment-analysis/,https://amp.pharm.mssm.edu/Enrichr/
549,TP53,increases,protein deubiquitination ,http://geneontology.org/docs/go-enrichment-analysis/,https://amp.pharm.mssm.edu/Enrichr/
553,TP53,increases,positive regulation of programmed cell death ,http://geneontology.org/docs/go-enrichment-analysis/,https://amp.pharm.mssm.edu/Enrichr/
560,TP53,increases,protein modification by small protein removal ,http://geneontology.org/docs/go-enrichment-analysis/,https://amp.pharm.mssm.edu/Enrichr/
564,TP53,increases,signal transduction in response to DNA damage ,http://geneontology.org/docs/go-enrichment-analysis/,https://amp.pharm.mssm.edu/Enrichr/
568,TP53,increases,positive regulation of macromolecule metabolic process ,http://geneontology.org/docs/go-enrichment-analysis/,https://amp.pharm.mssm.edu/Enrichr/
570,EPHA3,increases,regulation of microtubule-based process ,http://geneontology.org/docs/go-enrichment-analysis/,https://amp.pharm.mssm.edu/Enrichr/
572,TP53,increases,response to gamma radiation ,http://geneontology.org/docs/go-enrichment-analysis/,https://amp.pharm.mssm.edu/Enrichr/
586,TP53,increases,negative regulation of cellular macromolecule biosynthetic process ,http://geneontology.org/docs/go-enrichment-analysis/,https://amp.pharm.mssm.edu/Enrichr/
591,TP53,increases,regulation of protein export from nucleus ,http://geneontology.org/docs/go-enrichment-analysis/,https://amp.pharm.mssm.edu/Enrichr/
597,TP53,increases,positive regulation of apoptotic process ,http://geneontology.org/docs/go-enrichment-analysis/,https://amp.pharm.mssm.edu/Enrichr/
602,TP53,increases,regulation of signal transduction by p53 class mediator ,http://geneontology.org/docs/go-enrichment-analysis/,https://amp.pharm.mssm.edu/Enrichr/
606,TP53,increases,DNA metabolic process ,http://geneontology.org/docs/go-enrichment-analysis/,https://amp.pharm.mssm.edu/Enrichr/
