,subject,variant,relation,obj,citations,db_url
1,KRAS,NM_033360.3(KRAS):c.34G>C (p.Gly12Arg),increases,"MESH:""Carcinoma, Non-Small-Cell Lung""","<a href=""https://www.ncbi.nlm.nih.gov/clinvar/variation/12579"" target=""_blank"">12579</a>","<a href=""https://www.ncbi.nlm.nih.gov/clinvar/variation/12579"" target=""_blank"">12579</a>"
2,KRAS,NM_033360.3(KRAS):c.38G>A (p.Gly13Asp),increases,"MESH:""Carcinoma, Non-Small-Cell Lung""","<a href=""https://www.ncbi.nlm.nih.gov/clinvar/variation/12580"" target=""_blank"">12580</a>","<a href=""https://www.ncbi.nlm.nih.gov/clinvar/variation/12580"" target=""_blank"">12580</a>"
3,KRAS,NM_033360.3(KRAS):c.37G>C (p.Gly13Arg),increases,"MESH:""Carcinoma, Non-Small-Cell Lung""","<a href=""https://www.ncbi.nlm.nih.gov/clinvar/variation/12593"" target=""_blank"">12593</a>","<a href=""https://www.ncbi.nlm.nih.gov/clinvar/variation/12593"" target=""_blank"">12593</a>"
4,KRAS,NM_004985.4(KRAS):c.35G>A (p.Gly12Asp),increases,"MESH:""Carcinoma, Non-Small-Cell Lung""","<a href=""https://www.ncbi.nlm.nih.gov/clinvar/variation/12582"" target=""_blank"">12582</a>","<a href=""https://www.ncbi.nlm.nih.gov/clinvar/variation/12582"" target=""_blank"">12582</a>"
5,KRAS,NM_004985.4(KRAS):c.35G>T (p.Gly12Val),increases,"MESH:""Carcinoma, Non-Small-Cell Lung""","<a href=""https://www.ncbi.nlm.nih.gov/clinvar/variation/12583"" target=""_blank"">12583</a>","<a href=""https://www.ncbi.nlm.nih.gov/clinvar/variation/12583"" target=""_blank"">12583</a>"
6,KRAS,NM_033360.3(KRAS):c.34G>A (p.Gly12Ser),increases,"MESH:""Carcinoma, Non-Small-Cell Lung""","<a href=""https://www.ncbi.nlm.nih.gov/clinvar/variation/12584"" target=""_blank"">12584</a>","<a href=""https://www.ncbi.nlm.nih.gov/clinvar/variation/12584"" target=""_blank"">12584</a>"
28,KRAS,NM_033360.3(KRAS):c.182A>G (p.Gln61Arg),increases,"MESH:""Carcinoma, Non-Small-Cell Lung""","<a href=""https://www.ncbi.nlm.nih.gov/clinvar/variation/45115"" target=""_blank"">45115</a>","<a href=""https://www.ncbi.nlm.nih.gov/clinvar/variation/45115"" target=""_blank"">45115</a>"
29,KRAS,NM_033360.3(KRAS):c.182A>T (p.Gln61Leu),increases,"MESH:""Carcinoma, Non-Small-Cell Lung""","<a href=""https://www.ncbi.nlm.nih.gov/clinvar/variation/45116"" target=""_blank"">45116</a>","<a href=""https://www.ncbi.nlm.nih.gov/clinvar/variation/45116"" target=""_blank"">45116</a>"
32,KRAS,NM_004985.4(KRAS):c.37G>T (p.Gly13Cys),increases,"MESH:""Carcinoma, Non-Small-Cell Lung""","<a href=""https://www.ncbi.nlm.nih.gov/clinvar/variation/45123"" target=""_blank"">45123</a>","<a href=""https://www.ncbi.nlm.nih.gov/clinvar/variation/45123"" target=""_blank"">45123</a>"
51,KRAS,NM_004985.4(KRAS):c.181C>A (p.Gln61Lys),increases,"MESH:""Carcinoma, Non-Small-Cell Lung""","<a href=""https://www.ncbi.nlm.nih.gov/clinvar/variation/177777"" target=""_blank"">177777</a>","<a href=""https://www.ncbi.nlm.nih.gov/clinvar/variation/177777"" target=""_blank"">177777</a>"
57,KRAS,NM_004985.4(KRAS):c.437C>T (p.Ala146Val),increases,"MESH:""Carcinoma, Non-Small-Cell Lung""","<a href=""https://www.ncbi.nlm.nih.gov/clinvar/variation/375962"" target=""_blank"">375962</a>","<a href=""https://www.ncbi.nlm.nih.gov/clinvar/variation/375962"" target=""_blank"">375962</a>"
58,KRAS,NM_033360.3(KRAS):c.38G>C (p.Gly13Ala),increases,"MESH:""Carcinoma, Non-Small-Cell Lung""","<a href=""https://www.ncbi.nlm.nih.gov/clinvar/variation/375967"" target=""_blank"">375967</a>","<a href=""https://www.ncbi.nlm.nih.gov/clinvar/variation/375967"" target=""_blank"">375967</a>"
59,KRAS,NM_033360.3(KRAS):c.37G>A (p.Gly13Ser),increases,"MESH:""Carcinoma, Non-Small-Cell Lung""","<a href=""https://www.ncbi.nlm.nih.gov/clinvar/variation/375968"" target=""_blank"">375968</a>","<a href=""https://www.ncbi.nlm.nih.gov/clinvar/variation/375968"" target=""_blank"">375968</a>"
