[
    {
        "nanopub": {
            "id": "shradha_pat13_v1_enrichR_GO_1",
            "type": {
                "name": "BEL",
                "version": "2.1.0"
            },
            "citation": {
                "uri": "http://geneontology.org/docs/go-enrichment-analysis/"
            },
            "assertions": [
                {
                    "subject": "p(HGNC:EPHA3)",
                    "relation": "increases",
                    "object": "bp(GO:negative regulation of cell communication )"
                }
            ],
            "annotations": [
                {
                    "type": "Species",
                    "id": "TAX:9606",
                    "label": "human"
                }
            ],
            "database": {
                "uri_db": "https://amp.pharm.mssm.edu/Enrichr/"
            },
            "metadata": {
                "project": "BMI593_BEL_NSCLC_Fall2019_pat13_v1",
                "gd_creator": "shradha_pat13_v1",
                "note": "EPHA3 acts as increases of bp(GO:negative regulation of cell communication ). This relation may or may not hold true in the context of NSCLC."
            }
        }
    },
    {
        "nanopub": {
            "id": "shradha_pat13_v1_enrichR_GO_2",
            "type": {
                "name": "BEL",
                "version": "2.1.0"
            },
            "citation": {
                "uri": "http://geneontology.org/docs/go-enrichment-analysis/"
            },
            "assertions": [
                {
                    "subject": "p(HGNC:EPHA3)",
                    "relation": "increases",
                    "object": "bp(GO:negative regulation of response to stimulus )"
                }
            ],
            "annotations": [
                {
                    "type": "Species",
                    "id": "TAX:9606",
                    "label": "human"
                }
            ],
            "database": {
                "uri_db": "https://amp.pharm.mssm.edu/Enrichr/"
            },
            "metadata": {
                "project": "BMI593_BEL_NSCLC_Fall2019_pat13_v1",
                "gd_creator": "shradha_pat13_v1",
                "note": "EPHA3 acts as increases of bp(GO:negative regulation of response to stimulus ). This relation may or may not hold true in the context of NSCLC."
            }
        }
    },
    {
        "nanopub": {
            "id": "shradha_pat13_v1_enrichR_GO_3",
            "type": {
                "name": "BEL",
                "version": "2.1.0"
            },
            "citation": {
                "uri": "http://geneontology.org/docs/go-enrichment-analysis/"
            },
            "assertions": [
                {
                    "subject": "p(HGNC:EPHA3)",
                    "relation": "increases",
                    "object": "bp(GO:negative regulation of signaling )"
                }
            ],
            "annotations": [
                {
                    "type": "Species",
                    "id": "TAX:9606",
                    "label": "human"
                }
            ],
            "database": {
                "uri_db": "https://amp.pharm.mssm.edu/Enrichr/"
            },
            "metadata": {
                "project": "BMI593_BEL_NSCLC_Fall2019_pat13_v1",
                "gd_creator": "shradha_pat13_v1",
                "note": "EPHA3 acts as increases of bp(GO:negative regulation of signaling ). This relation may or may not hold true in the context of NSCLC."
            }
        }
    },
    {
        "nanopub": {
            "id": "shradha_pat13_v1_enrichR_GO_4",
            "type": {
                "name": "BEL",
                "version": "2.1.0"
            },
            "citation": {
                "uri": "http://geneontology.org/docs/go-enrichment-analysis/"
            },
            "assertions": [
                {
                    "subject": "p(HGNC:EPHA3)",
                    "relation": "increases",
                    "object": "bp(GO:regulation of kinase activity )"
                }
            ],
            "annotations": [
                {
                    "type": "Species",
                    "id": "TAX:9606",
                    "label": "human"
                }
            ],
            "database": {
                "uri_db": "https://amp.pharm.mssm.edu/Enrichr/"
            },
            "metadata": {
                "project": "BMI593_BEL_NSCLC_Fall2019_pat13_v1",
                "gd_creator": "shradha_pat13_v1",
                "note": "EPHA3 acts as increases of bp(GO:regulation of kinase activity ). This relation may or may not hold true in the context of NSCLC."
            }
        }
    },
    {
        "nanopub": {
            "id": "shradha_pat13_v1_enrichR_GO_5",
            "type": {
                "name": "BEL",
                "version": "2.1.0"
            },
            "citation": {
                "uri": "http://geneontology.org/docs/go-enrichment-analysis/"
            },
            "assertions": [
                {
                    "subject": "p(HGNC:KRAS)",
                    "relation": "increases",
                    "object": "bp(GO:positive regulation of protein phosphorylation )"
                }
            ],
            "annotations": [
                {
                    "type": "Species",
                    "id": "TAX:9606",
                    "label": "human"
                }
            ],
            "database": {
                "uri_db": "https://amp.pharm.mssm.edu/Enrichr/"
            },
            "metadata": {
                "project": "BMI593_BEL_NSCLC_Fall2019_pat13_v1",
                "gd_creator": "shradha_pat13_v1",
                "note": "KRAS acts as increases of bp(GO:positive regulation of protein phosphorylation ). This relation may or may not hold true in the context of NSCLC."
            }
        }
    },
    {
        "nanopub": {
            "id": "shradha_pat13_v1_enrichR_GO_6",
            "type": {
                "name": "BEL",
                "version": "2.1.0"
            },
            "citation": {
                "uri": "http://geneontology.org/docs/go-enrichment-analysis/"
            },
            "assertions": [
                {
                    "subject": "p(HGNC:EPHA3)",
                    "relation": "increases",
                    "object": "bp(GO:positive regulation of protein phosphorylation )"
                }
            ],
            "annotations": [
                {
                    "type": "Species",
                    "id": "TAX:9606",
                    "label": "human"
                }
            ],
            "database": {
                "uri_db": "https://amp.pharm.mssm.edu/Enrichr/"
            },
            "metadata": {
                "project": "BMI593_BEL_NSCLC_Fall2019_pat13_v1",
                "gd_creator": "shradha_pat13_v1",
                "note": "EPHA3 acts as increases of bp(GO:positive regulation of protein phosphorylation ). This relation may or may not hold true in the context of NSCLC."
            }
        }
    },
    {
        "nanopub": {
            "id": "shradha_pat13_v1_enrichR_GO_7",
            "type": {
                "name": "BEL",
                "version": "2.1.0"
            },
            "citation": {
                "uri": "http://geneontology.org/docs/go-enrichment-analysis/"
            },
            "assertions": [
                {
                    "subject": "p(HGNC:EPHA3)",
                    "relation": "increases",
                    "object": "bp(GO:regulation of ERK1 and ERK2 cascade )"
                }
            ],
            "annotations": [
                {
                    "type": "Species",
                    "id": "TAX:9606",
                    "label": "human"
                }
            ],
            "database": {
                "uri_db": "https://amp.pharm.mssm.edu/Enrichr/"
            },
            "metadata": {
                "project": "BMI593_BEL_NSCLC_Fall2019_pat13_v1",
                "gd_creator": "shradha_pat13_v1",
                "note": "EPHA3 acts as increases of bp(GO:regulation of ERK1 and ERK2 cascade ). This relation may or may not hold true in the context of NSCLC."
            }
        }
    },
    {
        "nanopub": {
            "id": "shradha_pat13_v1_enrichR_GO_8",
            "type": {
                "name": "BEL",
                "version": "2.1.0"
            },
            "citation": {
                "uri": "http://geneontology.org/docs/go-enrichment-analysis/"
            },
            "assertions": [
                {
                    "subject": "p(HGNC:EPHA3)",
                    "relation": "increases",
                    "object": "bp(GO:positive regulation of kinase activity )"
                }
            ],
            "annotations": [
                {
                    "type": "Species",
                    "id": "TAX:9606",
                    "label": "human"
                }
            ],
            "database": {
                "uri_db": "https://amp.pharm.mssm.edu/Enrichr/"
            },
            "metadata": {
                "project": "BMI593_BEL_NSCLC_Fall2019_pat13_v1",
                "gd_creator": "shradha_pat13_v1",
                "note": "EPHA3 acts as increases of bp(GO:positive regulation of kinase activity ). This relation may or may not hold true in the context of NSCLC."
            }
        }
    },
    {
        "nanopub": {
            "id": "shradha_pat13_v1_enrichR_GO_9",
            "type": {
                "name": "BEL",
                "version": "2.1.0"
            },
            "citation": {
                "uri": "http://geneontology.org/docs/go-enrichment-analysis/"
            },
            "assertions": [
                {
                    "subject": "p(HGNC:EPHA3)",
                    "relation": "increases",
                    "object": "bp(GO:positive regulation of ERK1 and ERK2 cascade )"
                }
            ],
            "annotations": [
                {
                    "type": "Species",
                    "id": "TAX:9606",
                    "label": "human"
                }
            ],
            "database": {
                "uri_db": "https://amp.pharm.mssm.edu/Enrichr/"
            },
            "metadata": {
                "project": "BMI593_BEL_NSCLC_Fall2019_pat13_v1",
                "gd_creator": "shradha_pat13_v1",
                "note": "EPHA3 acts as increases of bp(GO:positive regulation of ERK1 and ERK2 cascade ). This relation may or may not hold true in the context of NSCLC."
            }
        }
    },
    {
        "nanopub": {
            "id": "shradha_pat13_v1_enrichR_GO_10",
            "type": {
                "name": "BEL",
                "version": "2.1.0"
            },
            "citation": {
                "uri": "http://geneontology.org/docs/go-enrichment-analysis/"
            },
            "assertions": [
                {
                    "subject": "p(HGNC:EPHA3)",
                    "relation": "increases",
                    "object": "bp(GO:regulation of MAPK cascade )"
                }
            ],
            "annotations": [
                {
                    "type": "Species",
                    "id": "TAX:9606",
                    "label": "human"
                }
            ],
            "database": {
                "uri_db": "https://amp.pharm.mssm.edu/Enrichr/"
            },
            "metadata": {
                "project": "BMI593_BEL_NSCLC_Fall2019_pat13_v1",
                "gd_creator": "shradha_pat13_v1",
                "note": "EPHA3 acts as increases of bp(GO:regulation of MAPK cascade ). This relation may or may not hold true in the context of NSCLC."
            }
        }
    },
    {
        "nanopub": {
            "id": "shradha_pat13_v1_enrichR_GO_11",
            "type": {
                "name": "BEL",
                "version": "2.1.0"
            },
            "citation": {
                "uri": "http://geneontology.org/docs/go-enrichment-analysis/"
            },
            "assertions": [
                {
                    "subject": "p(HGNC:KRAS)",
                    "relation": "increases",
                    "object": "bp(GO:positive regulation of phosphorylation )"
                }
            ],
            "annotations": [
                {
                    "type": "Species",
                    "id": "TAX:9606",
                    "label": "human"
                }
            ],
            "database": {
                "uri_db": "https://amp.pharm.mssm.edu/Enrichr/"
            },
            "metadata": {
                "project": "BMI593_BEL_NSCLC_Fall2019_pat13_v1",
                "gd_creator": "shradha_pat13_v1",
                "note": "KRAS acts as increases of bp(GO:positive regulation of phosphorylation ). This relation may or may not hold true in the context of NSCLC."
            }
        }
    },
    {
        "nanopub": {
            "id": "shradha_pat13_v1_enrichR_GO_12",
            "type": {
                "name": "BEL",
                "version": "2.1.0"
            },
            "citation": {
                "uri": "http://geneontology.org/docs/go-enrichment-analysis/"
            },
            "assertions": [
                {
                    "subject": "p(HGNC:EPHA3)",
                    "relation": "increases",
                    "object": "bp(GO:positive regulation of phosphorylation )"
                }
            ],
            "annotations": [
                {
                    "type": "Species",
                    "id": "TAX:9606",
                    "label": "human"
                }
            ],
            "database": {
                "uri_db": "https://amp.pharm.mssm.edu/Enrichr/"
            },
            "metadata": {
                "project": "BMI593_BEL_NSCLC_Fall2019_pat13_v1",
                "gd_creator": "shradha_pat13_v1",
                "note": "EPHA3 acts as increases of bp(GO:positive regulation of phosphorylation ). This relation may or may not hold true in the context of NSCLC."
            }
        }
    },
    {
        "nanopub": {
            "id": "shradha_pat13_v1_enrichR_GO_13",
            "type": {
                "name": "BEL",
                "version": "2.1.0"
            },
            "citation": {
                "uri": "http://geneontology.org/docs/go-enrichment-analysis/"
            },
            "assertions": [
                {
                    "subject": "p(HGNC:EPHA3)",
                    "relation": "increases",
                    "object": "bp(GO:positive regulation of transferase activity )"
                }
            ],
            "annotations": [
                {
                    "type": "Species",
                    "id": "TAX:9606",
                    "label": "human"
                }
            ],
            "database": {
                "uri_db": "https://amp.pharm.mssm.edu/Enrichr/"
            },
            "metadata": {
                "project": "BMI593_BEL_NSCLC_Fall2019_pat13_v1",
                "gd_creator": "shradha_pat13_v1",
                "note": "EPHA3 acts as increases of bp(GO:positive regulation of transferase activity ). This relation may or may not hold true in the context of NSCLC."
            }
        }
    },
    {
        "nanopub": {
            "id": "shradha_pat13_v1_enrichR_GO_14",
            "type": {
                "name": "BEL",
                "version": "2.1.0"
            },
            "citation": {
                "uri": "http://geneontology.org/docs/go-enrichment-analysis/"
            },
            "assertions": [
                {
                    "subject": "p(HGNC:EPHA3)",
                    "relation": "increases",
                    "object": "bp(GO:regulation of signal transduction )"
                }
            ],
            "annotations": [
                {
                    "type": "Species",
                    "id": "TAX:9606",
                    "label": "human"
                }
            ],
            "database": {
                "uri_db": "https://amp.pharm.mssm.edu/Enrichr/"
            },
            "metadata": {
                "project": "BMI593_BEL_NSCLC_Fall2019_pat13_v1",
                "gd_creator": "shradha_pat13_v1",
                "note": "EPHA3 acts as increases of bp(GO:regulation of signal transduction ). This relation may or may not hold true in the context of NSCLC."
            }
        }
    },
    {
        "nanopub": {
            "id": "shradha_pat13_v1_enrichR_GO_15",
            "type": {
                "name": "BEL",
                "version": "2.1.0"
            },
            "citation": {
                "uri": "http://geneontology.org/docs/go-enrichment-analysis/"
            },
            "assertions": [
                {
                    "subject": "p(HGNC:EPHA3)",
                    "relation": "increases",
                    "object": "bp(GO:regulation of apoptotic process )"
                }
            ],
            "annotations": [
                {
                    "type": "Species",
                    "id": "TAX:9606",
                    "label": "human"
                }
            ],
            "database": {
                "uri_db": "https://amp.pharm.mssm.edu/Enrichr/"
            },
            "metadata": {
                "project": "BMI593_BEL_NSCLC_Fall2019_pat13_v1",
                "gd_creator": "shradha_pat13_v1",
                "note": "EPHA3 acts as increases of bp(GO:regulation of apoptotic process ). This relation may or may not hold true in the context of NSCLC."
            }
        }
    },
    {
        "nanopub": {
            "id": "shradha_pat13_v1_enrichR_GO_16",
            "type": {
                "name": "BEL",
                "version": "2.1.0"
            },
            "citation": {
                "uri": "http://geneontology.org/docs/go-enrichment-analysis/"
            },
            "assertions": [
                {
                    "subject": "p(HGNC:EPHA3)",
                    "relation": "increases",
                    "object": "bp(GO:negative regulation of apoptotic process )"
                }
            ],
            "annotations": [
                {
                    "type": "Species",
                    "id": "TAX:9606",
                    "label": "human"
                }
            ],
            "database": {
                "uri_db": "https://amp.pharm.mssm.edu/Enrichr/"
            },
            "metadata": {
                "project": "BMI593_BEL_NSCLC_Fall2019_pat13_v1",
                "gd_creator": "shradha_pat13_v1",
                "note": "EPHA3 acts as increases of bp(GO:negative regulation of apoptotic process ). This relation may or may not hold true in the context of NSCLC."
            }
        }
    },
    {
        "nanopub": {
            "id": "shradha_pat13_v1_enrichR_GO_17",
            "type": {
                "name": "BEL",
                "version": "2.1.0"
            },
            "citation": {
                "uri": "http://geneontology.org/docs/go-enrichment-analysis/"
            },
            "assertions": [
                {
                    "subject": "p(HGNC:EPHA3)",
                    "relation": "increases",
                    "object": "bp(GO:negative regulation of signal transduction )"
                }
            ],
            "annotations": [
                {
                    "type": "Species",
                    "id": "TAX:9606",
                    "label": "human"
                }
            ],
            "database": {
                "uri_db": "https://amp.pharm.mssm.edu/Enrichr/"
            },
            "metadata": {
                "project": "BMI593_BEL_NSCLC_Fall2019_pat13_v1",
                "gd_creator": "shradha_pat13_v1",
                "note": "EPHA3 acts as increases of bp(GO:negative regulation of signal transduction ). This relation may or may not hold true in the context of NSCLC."
            }
        }
    },
    {
        "nanopub": {
            "id": "shradha_pat13_v1_enrichR_GO_18",
            "type": {
                "name": "BEL",
                "version": "2.1.0"
            },
            "citation": {
                "uri": "http://geneontology.org/docs/go-enrichment-analysis/"
            },
            "assertions": [
                {
                    "subject": "p(HGNC:EPHA3)",
                    "relation": "increases",
                    "object": "bp(GO:negative regulation of programmed cell death )"
                }
            ],
            "annotations": [
                {
                    "type": "Species",
                    "id": "TAX:9606",
                    "label": "human"
                }
            ],
            "database": {
                "uri_db": "https://amp.pharm.mssm.edu/Enrichr/"
            },
            "metadata": {
                "project": "BMI593_BEL_NSCLC_Fall2019_pat13_v1",
                "gd_creator": "shradha_pat13_v1",
                "note": "EPHA3 acts as increases of bp(GO:negative regulation of programmed cell death ). This relation may or may not hold true in the context of NSCLC."
            }
        }
    },
    {
        "nanopub": {
            "id": "shradha_pat13_v1_enrichR_GO_19",
            "type": {
                "name": "BEL",
                "version": "2.1.0"
            },
            "citation": {
                "uri": "http://geneontology.org/docs/go-enrichment-analysis/"
            },
            "assertions": [
                {
                    "subject": "p(HGNC:EPHA3)",
                    "relation": "increases",
                    "object": "bp(GO:positive regulation of MAPK cascade )"
                }
            ],
            "annotations": [
                {
                    "type": "Species",
                    "id": "TAX:9606",
                    "label": "human"
                }
            ],
            "database": {
                "uri_db": "https://amp.pharm.mssm.edu/Enrichr/"
            },
            "metadata": {
                "project": "BMI593_BEL_NSCLC_Fall2019_pat13_v1",
                "gd_creator": "shradha_pat13_v1",
                "note": "EPHA3 acts as increases of bp(GO:positive regulation of MAPK cascade ). This relation may or may not hold true in the context of NSCLC."
            }
        }
    },
    {
        "nanopub": {
            "id": "shradha_pat13_v1_enrichR_GO_20",
            "type": {
                "name": "BEL",
                "version": "2.1.0"
            },
            "citation": {
                "uri": "http://geneontology.org/docs/go-enrichment-analysis/"
            },
            "assertions": [
                {
                    "subject": "p(HGNC:EPHA3)",
                    "relation": "increases",
                    "object": "bp(GO:positive regulation of intracellular signal transduction )"
                }
            ],
            "annotations": [
                {
                    "type": "Species",
                    "id": "TAX:9606",
                    "label": "human"
                }
            ],
            "database": {
                "uri_db": "https://amp.pharm.mssm.edu/Enrichr/"
            },
            "metadata": {
                "project": "BMI593_BEL_NSCLC_Fall2019_pat13_v1",
                "gd_creator": "shradha_pat13_v1",
                "note": "EPHA3 acts as increases of bp(GO:positive regulation of intracellular signal transduction ). This relation may or may not hold true in the context of NSCLC."
            }
        }
    },
    {
        "nanopub": {
            "id": "shradha_pat13_v1_enrichR_GO_21",
            "type": {
                "name": "BEL",
                "version": "2.1.0"
            },
            "citation": {
                "uri": "http://geneontology.org/docs/go-enrichment-analysis/"
            },
            "assertions": [
                {
                    "subject": "p(HGNC:KRAS)",
                    "relation": "increases",
                    "object": "bp(GO:regulation of cell proliferation )"
                }
            ],
            "annotations": [
                {
                    "type": "Species",
                    "id": "TAX:9606",
                    "label": "human"
                }
            ],
            "database": {
                "uri_db": "https://amp.pharm.mssm.edu/Enrichr/"
            },
            "metadata": {
                "project": "BMI593_BEL_NSCLC_Fall2019_pat13_v1",
                "gd_creator": "shradha_pat13_v1",
                "note": "KRAS acts as increases of bp(GO:regulation of cell proliferation ). This relation may or may not hold true in the context of NSCLC."
            }
        }
    },
    {
        "nanopub": {
            "id": "shradha_pat13_v1_enrichR_GO_22",
            "type": {
                "name": "BEL",
                "version": "2.1.0"
            },
            "citation": {
                "uri": "http://geneontology.org/docs/go-enrichment-analysis/"
            },
            "assertions": [
                {
                    "subject": "p(HGNC:EPHA3)",
                    "relation": "increases",
                    "object": "bp(GO:protein phosphorylation )"
                }
            ],
            "annotations": [
                {
                    "type": "Species",
                    "id": "TAX:9606",
                    "label": "human"
                }
            ],
            "database": {
                "uri_db": "https://amp.pharm.mssm.edu/Enrichr/"
            },
            "metadata": {
                "project": "BMI593_BEL_NSCLC_Fall2019_pat13_v1",
                "gd_creator": "shradha_pat13_v1",
                "note": "EPHA3 acts as increases of bp(GO:protein phosphorylation ). This relation may or may not hold true in the context of NSCLC."
            }
        }
    },
    {
        "nanopub": {
            "id": "shradha_pat13_v1_enrichR_GO_23",
            "type": {
                "name": "BEL",
                "version": "2.1.0"
            },
            "citation": {
                "uri": "http://geneontology.org/docs/go-enrichment-analysis/"
            },
            "assertions": [
                {
                    "subject": "p(HGNC:KRAS)",
                    "relation": "increases",
                    "object": "bp(GO:positive regulation of gene expression )"
                }
            ],
            "annotations": [
                {
                    "type": "Species",
                    "id": "TAX:9606",
                    "label": "human"
                }
            ],
            "database": {
                "uri_db": "https://amp.pharm.mssm.edu/Enrichr/"
            },
            "metadata": {
                "project": "BMI593_BEL_NSCLC_Fall2019_pat13_v1",
                "gd_creator": "shradha_pat13_v1",
                "note": "KRAS acts as increases of bp(GO:positive regulation of gene expression ). This relation may or may not hold true in the context of NSCLC."
            }
        }
    },
    {
        "nanopub": {
            "id": "shradha_pat13_v1_enrichR_GO_24",
            "type": {
                "name": "BEL",
                "version": "2.1.0"
            },
            "citation": {
                "uri": "http://geneontology.org/docs/go-enrichment-analysis/"
            },
            "assertions": [
                {
                    "subject": "p(HGNC:KRAS)",
                    "relation": "increases",
                    "object": "bp(GO:MAPK cascade )"
                }
            ],
            "annotations": [
                {
                    "type": "Species",
                    "id": "TAX:9606",
                    "label": "human"
                }
            ],
            "database": {
                "uri_db": "https://amp.pharm.mssm.edu/Enrichr/"
            },
            "metadata": {
                "project": "BMI593_BEL_NSCLC_Fall2019_pat13_v1",
                "gd_creator": "shradha_pat13_v1",
                "note": "KRAS acts as increases of bp(GO:MAPK cascade ). This relation may or may not hold true in the context of NSCLC."
            }
        }
    },
    {
        "nanopub": {
            "id": "shradha_pat13_v1_enrichR_GO_25",
            "type": {
                "name": "BEL",
                "version": "2.1.0"
            },
            "citation": {
                "uri": "http://geneontology.org/docs/go-enrichment-analysis/"
            },
            "assertions": [
                {
                    "subject": "p(HGNC:KRAS)",
                    "relation": "increases",
                    "object": "bp(GO:regulation of gene expression )"
                }
            ],
            "annotations": [
                {
                    "type": "Species",
                    "id": "TAX:9606",
                    "label": "human"
                }
            ],
            "database": {
                "uri_db": "https://amp.pharm.mssm.edu/Enrichr/"
            },
            "metadata": {
                "project": "BMI593_BEL_NSCLC_Fall2019_pat13_v1",
                "gd_creator": "shradha_pat13_v1",
                "note": "KRAS acts as increases of bp(GO:regulation of gene expression ). This relation may or may not hold true in the context of NSCLC."
            }
        }
    },
    {
        "nanopub": {
            "id": "shradha_pat13_v1_enrichR_GO_26",
            "type": {
                "name": "BEL",
                "version": "2.1.0"
            },
            "citation": {
                "uri": "http://geneontology.org/docs/go-enrichment-analysis/"
            },
            "assertions": [
                {
                    "subject": "p(HGNC:KRAS)",
                    "relation": "increases",
                    "object": "bp(GO:ERBB2 signaling pathway )"
                }
            ],
            "annotations": [
                {
                    "type": "Species",
                    "id": "TAX:9606",
                    "label": "human"
                }
            ],
            "database": {
                "uri_db": "https://amp.pharm.mssm.edu/Enrichr/"
            },
            "metadata": {
                "project": "BMI593_BEL_NSCLC_Fall2019_pat13_v1",
                "gd_creator": "shradha_pat13_v1",
                "note": "KRAS acts as increases of bp(GO:ERBB2 signaling pathway ). This relation may or may not hold true in the context of NSCLC."
            }
        }
    },
    {
        "nanopub": {
            "id": "shradha_pat13_v1_enrichR_GO_27",
            "type": {
                "name": "BEL",
                "version": "2.1.0"
            },
            "citation": {
                "uri": "http://geneontology.org/docs/go-enrichment-analysis/"
            },
            "assertions": [
                {
                    "subject": "p(HGNC:KRAS)",
                    "relation": "increases",
                    "object": "bp(GO:small GTPase mediated signal transduction )"
                }
            ],
            "annotations": [
                {
                    "type": "Species",
                    "id": "TAX:9606",
                    "label": "human"
                }
            ],
            "database": {
                "uri_db": "https://amp.pharm.mssm.edu/Enrichr/"
            },
            "metadata": {
                "project": "BMI593_BEL_NSCLC_Fall2019_pat13_v1",
                "gd_creator": "shradha_pat13_v1",
                "note": "KRAS acts as increases of bp(GO:small GTPase mediated signal transduction ). This relation may or may not hold true in the context of NSCLC."
            }
        }
    },
    {
        "nanopub": {
            "id": "shradha_pat13_v1_enrichR_GO_28",
            "type": {
                "name": "BEL",
                "version": "2.1.0"
            },
            "citation": {
                "uri": "http://geneontology.org/docs/go-enrichment-analysis/"
            },
            "assertions": [
                {
                    "subject": "p(HGNC:EPHA3)",
                    "relation": "increases",
                    "object": "bp(GO:peptidyl-tyrosine modification )"
                }
            ],
            "annotations": [
                {
                    "type": "Species",
                    "id": "TAX:9606",
                    "label": "human"
                }
            ],
            "database": {
                "uri_db": "https://amp.pharm.mssm.edu/Enrichr/"
            },
            "metadata": {
                "project": "BMI593_BEL_NSCLC_Fall2019_pat13_v1",
                "gd_creator": "shradha_pat13_v1",
                "note": "EPHA3 acts as increases of bp(GO:peptidyl-tyrosine modification ). This relation may or may not hold true in the context of NSCLC."
            }
        }
    },
    {
        "nanopub": {
            "id": "shradha_pat13_v1_enrichR_GO_29",
            "type": {
                "name": "BEL",
                "version": "2.1.0"
            },
            "citation": {
                "uri": "http://geneontology.org/docs/go-enrichment-analysis/"
            },
            "assertions": [
                {
                    "subject": "p(HGNC:EPHA3)",
                    "relation": "increases",
                    "object": "bp(GO:transmembrane receptor protein tyrosine kinase signaling pathway )"
                }
            ],
            "annotations": [
                {
                    "type": "Species",
                    "id": "TAX:9606",
                    "label": "human"
                }
            ],
            "database": {
                "uri_db": "https://amp.pharm.mssm.edu/Enrichr/"
            },
            "metadata": {
                "project": "BMI593_BEL_NSCLC_Fall2019_pat13_v1",
                "gd_creator": "shradha_pat13_v1",
                "note": "EPHA3 acts as increases of bp(GO:transmembrane receptor protein tyrosine kinase signaling pathway ). This relation may or may not hold true in the context of NSCLC."
            }
        }
    },
    {
        "nanopub": {
            "id": "shradha_pat13_v1_enrichR_GO_30",
            "type": {
                "name": "BEL",
                "version": "2.1.0"
            },
            "citation": {
                "uri": "http://geneontology.org/docs/go-enrichment-analysis/"
            },
            "assertions": [
                {
                    "subject": "p(HGNC:KRAS)",
                    "relation": "increases",
                    "object": "bp(GO:positive regulation of cell proliferation )"
                }
            ],
            "annotations": [
                {
                    "type": "Species",
                    "id": "TAX:9606",
                    "label": "human"
                }
            ],
            "database": {
                "uri_db": "https://amp.pharm.mssm.edu/Enrichr/"
            },
            "metadata": {
                "project": "BMI593_BEL_NSCLC_Fall2019_pat13_v1",
                "gd_creator": "shradha_pat13_v1",
                "note": "KRAS acts as increases of bp(GO:positive regulation of cell proliferation ). This relation may or may not hold true in the context of NSCLC."
            }
        }
    },
    {
        "nanopub": {
            "id": "shradha_pat13_v1_enrichR_GO_31",
            "type": {
                "name": "BEL",
                "version": "2.1.0"
            },
            "citation": {
                "uri": "http://geneontology.org/docs/go-enrichment-analysis/"
            },
            "assertions": [
                {
                    "subject": "p(HGNC:KRAS)",
                    "relation": "increases",
                    "object": "bp(GO:positive regulation of protein modification process )"
                }
            ],
            "annotations": [
                {
                    "type": "Species",
                    "id": "TAX:9606",
                    "label": "human"
                }
            ],
            "database": {
                "uri_db": "https://amp.pharm.mssm.edu/Enrichr/"
            },
            "metadata": {
                "project": "BMI593_BEL_NSCLC_Fall2019_pat13_v1",
                "gd_creator": "shradha_pat13_v1",
                "note": "KRAS acts as increases of bp(GO:positive regulation of protein modification process ). This relation may or may not hold true in the context of NSCLC."
            }
        }
    },
    {
        "nanopub": {
            "id": "shradha_pat13_v1_enrichR_GO_32",
            "type": {
                "name": "BEL",
                "version": "2.1.0"
            },
            "citation": {
                "uri": "http://geneontology.org/docs/go-enrichment-analysis/"
            },
            "assertions": [
                {
                    "subject": "p(HGNC:EPHA3)",
                    "relation": "increases",
                    "object": "bp(GO:peptidyl-tyrosine phosphorylation )"
                }
            ],
            "annotations": [
                {
                    "type": "Species",
                    "id": "TAX:9606",
                    "label": "human"
                }
            ],
            "database": {
                "uri_db": "https://amp.pharm.mssm.edu/Enrichr/"
            },
            "metadata": {
                "project": "BMI593_BEL_NSCLC_Fall2019_pat13_v1",
                "gd_creator": "shradha_pat13_v1",
                "note": "EPHA3 acts as increases of bp(GO:peptidyl-tyrosine phosphorylation ). This relation may or may not hold true in the context of NSCLC."
            }
        }
    },
    {
        "nanopub": {
            "id": "shradha_pat13_v1_enrichR_GO_33",
            "type": {
                "name": "BEL",
                "version": "2.1.0"
            },
            "citation": {
                "uri": "http://geneontology.org/docs/go-enrichment-analysis/"
            },
            "assertions": [
                {
                    "subject": "p(HGNC:KRAS)",
                    "relation": "increases",
                    "object": "bp(GO:ERBB signaling pathway )"
                }
            ],
            "annotations": [
                {
                    "type": "Species",
                    "id": "TAX:9606",
                    "label": "human"
                }
            ],
            "database": {
                "uri_db": "https://amp.pharm.mssm.edu/Enrichr/"
            },
            "metadata": {
                "project": "BMI593_BEL_NSCLC_Fall2019_pat13_v1",
                "gd_creator": "shradha_pat13_v1",
                "note": "KRAS acts as increases of bp(GO:ERBB signaling pathway ). This relation may or may not hold true in the context of NSCLC."
            }
        }
    },
    {
        "nanopub": {
            "id": "shradha_pat13_v1_enrichR_GO_34",
            "type": {
                "name": "BEL",
                "version": "2.1.0"
            },
            "citation": {
                "uri": "http://geneontology.org/docs/go-enrichment-analysis/"
            },
            "assertions": [
                {
                    "subject": "p(HGNC:KRAS)",
                    "relation": "increases",
                    "object": "bp(GO:positive regulation of cellular process )"
                }
            ],
            "annotations": [
                {
                    "type": "Species",
                    "id": "TAX:9606",
                    "label": "human"
                }
            ],
            "database": {
                "uri_db": "https://amp.pharm.mssm.edu/Enrichr/"
            },
            "metadata": {
                "project": "BMI593_BEL_NSCLC_Fall2019_pat13_v1",
                "gd_creator": "shradha_pat13_v1",
                "note": "KRAS acts as increases of bp(GO:positive regulation of cellular process ). This relation may or may not hold true in the context of NSCLC."
            }
        }
    },
    {
        "nanopub": {
            "id": "shradha_pat13_v1_enrichR_GO_35",
            "type": {
                "name": "BEL",
                "version": "2.1.0"
            },
            "citation": {
                "uri": "http://geneontology.org/docs/go-enrichment-analysis/"
            },
            "assertions": [
                {
                    "subject": "p(HGNC:KRAS)",
                    "relation": "increases",
                    "object": "bp(GO:Ras protein signal transduction )"
                }
            ],
            "annotations": [
                {
                    "type": "Species",
                    "id": "TAX:9606",
                    "label": "human"
                }
            ],
            "database": {
                "uri_db": "https://amp.pharm.mssm.edu/Enrichr/"
            },
            "metadata": {
                "project": "BMI593_BEL_NSCLC_Fall2019_pat13_v1",
                "gd_creator": "shradha_pat13_v1",
                "note": "KRAS acts as increases of bp(GO:Ras protein signal transduction ). This relation may or may not hold true in the context of NSCLC."
            }
        }
    },
    {
        "nanopub": {
            "id": "shradha_pat13_v1_enrichR_GO_36",
            "type": {
                "name": "BEL",
                "version": "2.1.0"
            },
            "citation": {
                "uri": "http://geneontology.org/docs/go-enrichment-analysis/"
            },
            "assertions": [
                {
                    "subject": "p(HGNC:KRAS)",
                    "relation": "increases",
                    "object": "bp(GO:regulation of protein phosphorylation )"
                }
            ],
            "annotations": [
                {
                    "type": "Species",
                    "id": "TAX:9606",
                    "label": "human"
                }
            ],
            "database": {
                "uri_db": "https://amp.pharm.mssm.edu/Enrichr/"
            },
            "metadata": {
                "project": "BMI593_BEL_NSCLC_Fall2019_pat13_v1",
                "gd_creator": "shradha_pat13_v1",
                "note": "KRAS acts as increases of bp(GO:regulation of protein phosphorylation ). This relation may or may not hold true in the context of NSCLC."
            }
        }
    },
    {
        "nanopub": {
            "id": "shradha_pat13_v1_enrichR_GO_37",
            "type": {
                "name": "BEL",
                "version": "2.1.0"
            },
            "citation": {
                "uri": "http://geneontology.org/docs/go-enrichment-analysis/"
            },
            "assertions": [
                {
                    "subject": "p(HGNC:EPHA3)",
                    "relation": "increases",
                    "object": "bp(GO:regulation of cell-matrix adhesion )"
                }
            ],
            "annotations": [
                {
                    "type": "Species",
                    "id": "TAX:9606",
                    "label": "human"
                }
            ],
            "database": {
                "uri_db": "https://amp.pharm.mssm.edu/Enrichr/"
            },
            "metadata": {
                "project": "BMI593_BEL_NSCLC_Fall2019_pat13_v1",
                "gd_creator": "shradha_pat13_v1",
                "note": "EPHA3 acts as increases of bp(GO:regulation of cell-matrix adhesion ). This relation may or may not hold true in the context of NSCLC."
            }
        }
    },
    {
        "nanopub": {
            "id": "shradha_pat13_v1_enrichR_GO_38",
            "type": {
                "name": "BEL",
                "version": "2.1.0"
            },
            "citation": {
                "uri": "http://geneontology.org/docs/go-enrichment-analysis/"
            },
            "assertions": [
                {
                    "subject": "p(HGNC:KRAS)",
                    "relation": "increases",
                    "object": "bp(GO:epidermal growth factor receptor signaling pathway )"
                }
            ],
            "annotations": [
                {
                    "type": "Species",
                    "id": "TAX:9606",
                    "label": "human"
                }
            ],
            "database": {
                "uri_db": "https://amp.pharm.mssm.edu/Enrichr/"
            },
            "metadata": {
                "project": "BMI593_BEL_NSCLC_Fall2019_pat13_v1",
                "gd_creator": "shradha_pat13_v1",
                "note": "KRAS acts as increases of bp(GO:epidermal growth factor receptor signaling pathway ). This relation may or may not hold true in the context of NSCLC."
            }
        }
    },
    {
        "nanopub": {
            "id": "shradha_pat13_v1_enrichR_GO_39",
            "type": {
                "name": "BEL",
                "version": "2.1.0"
            },
            "citation": {
                "uri": "http://geneontology.org/docs/go-enrichment-analysis/"
            },
            "assertions": [
                {
                    "subject": "p(HGNC:EPHA3)",
                    "relation": "increases",
                    "object": "bp(GO:regulation of hydrolase activity )"
                }
            ],
            "annotations": [
                {
                    "type": "Species",
                    "id": "TAX:9606",
                    "label": "human"
                }
            ],
            "database": {
                "uri_db": "https://amp.pharm.mssm.edu/Enrichr/"
            },
            "metadata": {
                "project": "BMI593_BEL_NSCLC_Fall2019_pat13_v1",
                "gd_creator": "shradha_pat13_v1",
                "note": "EPHA3 acts as increases of bp(GO:regulation of hydrolase activity ). This relation may or may not hold true in the context of NSCLC."
            }
        }
    },
    {
        "nanopub": {
            "id": "shradha_pat13_v1_enrichR_GO_40",
            "type": {
                "name": "BEL",
                "version": "2.1.0"
            },
            "citation": {
                "uri": "http://geneontology.org/docs/go-enrichment-analysis/"
            },
            "assertions": [
                {
                    "subject": "p(HGNC:EPHA3)",
                    "relation": "increases",
                    "object": "bp(GO:positive regulation of protein localization to membrane )"
                }
            ],
            "annotations": [
                {
                    "type": "Species",
                    "id": "TAX:9606",
                    "label": "human"
                }
            ],
            "database": {
                "uri_db": "https://amp.pharm.mssm.edu/Enrichr/"
            },
            "metadata": {
                "project": "BMI593_BEL_NSCLC_Fall2019_pat13_v1",
                "gd_creator": "shradha_pat13_v1",
                "note": "EPHA3 acts as increases of bp(GO:positive regulation of protein localization to membrane ). This relation may or may not hold true in the context of NSCLC."
            }
        }
    },
    {
        "nanopub": {
            "id": "shradha_pat13_v1_enrichR_GO_41",
            "type": {
                "name": "BEL",
                "version": "2.1.0"
            },
            "citation": {
                "uri": "http://geneontology.org/docs/go-enrichment-analysis/"
            },
            "assertions": [
                {
                    "subject": "p(HGNC:KRAS)",
                    "relation": "increases",
                    "object": "bp(GO:positive regulation of macromolecule metabolic process )"
                }
            ],
            "annotations": [
                {
                    "type": "Species",
                    "id": "TAX:9606",
                    "label": "human"
                }
            ],
            "database": {
                "uri_db": "https://amp.pharm.mssm.edu/Enrichr/"
            },
            "metadata": {
                "project": "BMI593_BEL_NSCLC_Fall2019_pat13_v1",
                "gd_creator": "shradha_pat13_v1",
                "note": "KRAS acts as increases of bp(GO:positive regulation of macromolecule metabolic process ). This relation may or may not hold true in the context of NSCLC."
            }
        }
    },
    {
        "nanopub": {
            "id": "shradha_pat13_v1_enrichR_GO_42",
            "type": {
                "name": "BEL",
                "version": "2.1.0"
            },
            "citation": {
                "uri": "http://geneontology.org/docs/go-enrichment-analysis/"
            },
            "assertions": [
                {
                    "subject": "p(HGNC:EPHA3)",
                    "relation": "increases",
                    "object": "bp(GO:regulation of microtubule-based process )"
                }
            ],
            "annotations": [
                {
                    "type": "Species",
                    "id": "TAX:9606",
                    "label": "human"
                }
            ],
            "database": {
                "uri_db": "https://amp.pharm.mssm.edu/Enrichr/"
            },
            "metadata": {
                "project": "BMI593_BEL_NSCLC_Fall2019_pat13_v1",
                "gd_creator": "shradha_pat13_v1",
                "note": "EPHA3 acts as increases of bp(GO:regulation of microtubule-based process ). This relation may or may not hold true in the context of NSCLC."
            }
        }
    }
]