,subject,relation,obj,citations,db_url
116,APC,increases,regulation of apoptotic process ,http://geneontology.org/docs/go-enrichment-analysis/,https://amp.pharm.mssm.edu/Enrichr/
180,APC,increases,regulation of cell proliferation ,http://geneontology.org/docs/go-enrichment-analysis/,https://amp.pharm.mssm.edu/Enrichr/
265,APC,increases,negative regulation of cellular process ,http://geneontology.org/docs/go-enrichment-analysis/,https://amp.pharm.mssm.edu/Enrichr/
272,APC,increases,negative regulation of cell proliferation ,http://geneontology.org/docs/go-enrichment-analysis/,https://amp.pharm.mssm.edu/Enrichr/
290,APC,increases,transmembrane receptor protein tyrosine kinase signaling pathway ,http://geneontology.org/docs/go-enrichment-analysis/,https://amp.pharm.mssm.edu/Enrichr/
338,APC,increases,regulation of cell migration ,http://geneontology.org/docs/go-enrichment-analysis/,https://amp.pharm.mssm.edu/Enrichr/
345,APC,increases,negative regulation of cyclin-dependent protein serine/threonine kinase activity ,http://geneontology.org/docs/go-enrichment-analysis/,https://amp.pharm.mssm.edu/Enrichr/
358,APC,increases,positive regulation of cellular process ,http://geneontology.org/docs/go-enrichment-analysis/,https://amp.pharm.mssm.edu/Enrichr/
452,APC,increases,regulation of cyclin-dependent protein serine/threonine kinase activity ,http://geneontology.org/docs/go-enrichment-analysis/,https://amp.pharm.mssm.edu/Enrichr/
454,APC,increases,negative regulation of protein serine/threonine kinase activity ,http://geneontology.org/docs/go-enrichment-analysis/,https://amp.pharm.mssm.edu/Enrichr/
457,APC,increases,positive regulation of cell motility ,http://geneontology.org/docs/go-enrichment-analysis/,https://amp.pharm.mssm.edu/Enrichr/
464,APC,increases,protein complex assembly ,http://geneontology.org/docs/go-enrichment-analysis/,https://amp.pharm.mssm.edu/Enrichr/
503,APC,increases,spindle assembly checkpoint ,http://geneontology.org/docs/go-enrichment-analysis/,https://amp.pharm.mssm.edu/Enrichr/
505,APC,increases,mitotic spindle assembly checkpoint ,http://geneontology.org/docs/go-enrichment-analysis/,https://amp.pharm.mssm.edu/Enrichr/
507,APC,increases,mitotic spindle checkpoint ,http://geneontology.org/docs/go-enrichment-analysis/,https://amp.pharm.mssm.edu/Enrichr/
512,APC,increases,positive regulation of cell migration ,http://geneontology.org/docs/go-enrichment-analysis/,https://amp.pharm.mssm.edu/Enrichr/
533,APC,increases,negative regulation of cyclin-dependent protein kinase activity ,http://geneontology.org/docs/go-enrichment-analysis/,https://amp.pharm.mssm.edu/Enrichr/
547,APC,increases,protein deubiquitination ,http://geneontology.org/docs/go-enrichment-analysis/,https://amp.pharm.mssm.edu/Enrichr/
550,APC,increases,positive regulation of programmed cell death ,http://geneontology.org/docs/go-enrichment-analysis/,https://amp.pharm.mssm.edu/Enrichr/
558,APC,increases,protein modification by small protein removal ,http://geneontology.org/docs/go-enrichment-analysis/,https://amp.pharm.mssm.edu/Enrichr/
569,APC,increases,regulation of microtubule-based process ,http://geneontology.org/docs/go-enrichment-analysis/,https://amp.pharm.mssm.edu/Enrichr/
594,APC,increases,positive regulation of apoptotic process ,http://geneontology.org/docs/go-enrichment-analysis/,https://amp.pharm.mssm.edu/Enrichr/
