[
    {
        "nanopub": {
            "id": "shradha_pat20_v1_enrichR_GO_1",
            "type": {
                "name": "BEL",
                "version": "2.1.0"
            },
            "citation": {
                "uri": "http://geneontology.org/docs/go-enrichment-analysis/"
            },
            "assertions": [
                {
                    "subject": "p(HGNC:BRAF)",
                    "relation": "increases",
                    "object": "bp(GO:negative regulation of cell communication )"
                }
            ],
            "annotations": [
                {
                    "type": "Species",
                    "id": "TAX:9606",
                    "label": "human"
                }
            ],
            "database": {
                "uri_db": "https://amp.pharm.mssm.edu/Enrichr/"
            },
            "metadata": {
                "project": "BMI593_BEL_NSCLC_Fall2019_pat20_v1",
                "gd_creator": "shradha_pat20_v1",
                "note": "BRAF acts as increases of bp(GO:negative regulation of cell communication ). This relation may or may not hold true in the context of NSCLC."
            }
        }
    },
    {
        "nanopub": {
            "id": "shradha_pat20_v1_enrichR_GO_2",
            "type": {
                "name": "BEL",
                "version": "2.1.0"
            },
            "citation": {
                "uri": "http://geneontology.org/docs/go-enrichment-analysis/"
            },
            "assertions": [
                {
                    "subject": "p(HGNC:BRAF)",
                    "relation": "increases",
                    "object": "bp(GO:negative regulation of response to stimulus )"
                }
            ],
            "annotations": [
                {
                    "type": "Species",
                    "id": "TAX:9606",
                    "label": "human"
                }
            ],
            "database": {
                "uri_db": "https://amp.pharm.mssm.edu/Enrichr/"
            },
            "metadata": {
                "project": "BMI593_BEL_NSCLC_Fall2019_pat20_v1",
                "gd_creator": "shradha_pat20_v1",
                "note": "BRAF acts as increases of bp(GO:negative regulation of response to stimulus ). This relation may or may not hold true in the context of NSCLC."
            }
        }
    },
    {
        "nanopub": {
            "id": "shradha_pat20_v1_enrichR_GO_3",
            "type": {
                "name": "BEL",
                "version": "2.1.0"
            },
            "citation": {
                "uri": "http://geneontology.org/docs/go-enrichment-analysis/"
            },
            "assertions": [
                {
                    "subject": "p(HGNC:BRAF)",
                    "relation": "increases",
                    "object": "bp(GO:negative regulation of signaling )"
                }
            ],
            "annotations": [
                {
                    "type": "Species",
                    "id": "TAX:9606",
                    "label": "human"
                }
            ],
            "database": {
                "uri_db": "https://amp.pharm.mssm.edu/Enrichr/"
            },
            "metadata": {
                "project": "BMI593_BEL_NSCLC_Fall2019_pat20_v1",
                "gd_creator": "shradha_pat20_v1",
                "note": "BRAF acts as increases of bp(GO:negative regulation of signaling ). This relation may or may not hold true in the context of NSCLC."
            }
        }
    },
    {
        "nanopub": {
            "id": "shradha_pat20_v1_enrichR_GO_4",
            "type": {
                "name": "BEL",
                "version": "2.1.0"
            },
            "citation": {
                "uri": "http://geneontology.org/docs/go-enrichment-analysis/"
            },
            "assertions": [
                {
                    "subject": "p(HGNC:BRAF)",
                    "relation": "increases",
                    "object": "bp(GO:positive regulation of protein phosphorylation )"
                }
            ],
            "annotations": [
                {
                    "type": "Species",
                    "id": "TAX:9606",
                    "label": "human"
                }
            ],
            "database": {
                "uri_db": "https://amp.pharm.mssm.edu/Enrichr/"
            },
            "metadata": {
                "project": "BMI593_BEL_NSCLC_Fall2019_pat20_v1",
                "gd_creator": "shradha_pat20_v1",
                "note": "BRAF acts as increases of bp(GO:positive regulation of protein phosphorylation ). This relation may or may not hold true in the context of NSCLC."
            }
        }
    },
    {
        "nanopub": {
            "id": "shradha_pat20_v1_enrichR_GO_5",
            "type": {
                "name": "BEL",
                "version": "2.1.0"
            },
            "citation": {
                "uri": "http://geneontology.org/docs/go-enrichment-analysis/"
            },
            "assertions": [
                {
                    "subject": "p(HGNC:BRAF)",
                    "relation": "increases",
                    "object": "bp(GO:regulation of ERK1 and ERK2 cascade )"
                }
            ],
            "annotations": [
                {
                    "type": "Species",
                    "id": "TAX:9606",
                    "label": "human"
                }
            ],
            "database": {
                "uri_db": "https://amp.pharm.mssm.edu/Enrichr/"
            },
            "metadata": {
                "project": "BMI593_BEL_NSCLC_Fall2019_pat20_v1",
                "gd_creator": "shradha_pat20_v1",
                "note": "BRAF acts as increases of bp(GO:regulation of ERK1 and ERK2 cascade ). This relation may or may not hold true in the context of NSCLC."
            }
        }
    },
    {
        "nanopub": {
            "id": "shradha_pat20_v1_enrichR_GO_6",
            "type": {
                "name": "BEL",
                "version": "2.1.0"
            },
            "citation": {
                "uri": "http://geneontology.org/docs/go-enrichment-analysis/"
            },
            "assertions": [
                {
                    "subject": "p(HGNC:BRAF)",
                    "relation": "increases",
                    "object": "bp(GO:positive regulation of ERK1 and ERK2 cascade )"
                }
            ],
            "annotations": [
                {
                    "type": "Species",
                    "id": "TAX:9606",
                    "label": "human"
                }
            ],
            "database": {
                "uri_db": "https://amp.pharm.mssm.edu/Enrichr/"
            },
            "metadata": {
                "project": "BMI593_BEL_NSCLC_Fall2019_pat20_v1",
                "gd_creator": "shradha_pat20_v1",
                "note": "BRAF acts as increases of bp(GO:positive regulation of ERK1 and ERK2 cascade ). This relation may or may not hold true in the context of NSCLC."
            }
        }
    },
    {
        "nanopub": {
            "id": "shradha_pat20_v1_enrichR_GO_7",
            "type": {
                "name": "BEL",
                "version": "2.1.0"
            },
            "citation": {
                "uri": "http://geneontology.org/docs/go-enrichment-analysis/"
            },
            "assertions": [
                {
                    "subject": "p(HGNC:BRAF)",
                    "relation": "increases",
                    "object": "bp(GO:regulation of signal transduction )"
                }
            ],
            "annotations": [
                {
                    "type": "Species",
                    "id": "TAX:9606",
                    "label": "human"
                }
            ],
            "database": {
                "uri_db": "https://amp.pharm.mssm.edu/Enrichr/"
            },
            "metadata": {
                "project": "BMI593_BEL_NSCLC_Fall2019_pat20_v1",
                "gd_creator": "shradha_pat20_v1",
                "note": "BRAF acts as increases of bp(GO:regulation of signal transduction ). This relation may or may not hold true in the context of NSCLC."
            }
        }
    },
    {
        "nanopub": {
            "id": "shradha_pat20_v1_enrichR_GO_8",
            "type": {
                "name": "BEL",
                "version": "2.1.0"
            },
            "citation": {
                "uri": "http://geneontology.org/docs/go-enrichment-analysis/"
            },
            "assertions": [
                {
                    "subject": "p(HGNC:BRAF)",
                    "relation": "increases",
                    "object": "bp(GO:regulation of apoptotic process )"
                }
            ],
            "annotations": [
                {
                    "type": "Species",
                    "id": "TAX:9606",
                    "label": "human"
                }
            ],
            "database": {
                "uri_db": "https://amp.pharm.mssm.edu/Enrichr/"
            },
            "metadata": {
                "project": "BMI593_BEL_NSCLC_Fall2019_pat20_v1",
                "gd_creator": "shradha_pat20_v1",
                "note": "BRAF acts as increases of bp(GO:regulation of apoptotic process ). This relation may or may not hold true in the context of NSCLC."
            }
        }
    },
    {
        "nanopub": {
            "id": "shradha_pat20_v1_enrichR_GO_9",
            "type": {
                "name": "BEL",
                "version": "2.1.0"
            },
            "citation": {
                "uri": "http://geneontology.org/docs/go-enrichment-analysis/"
            },
            "assertions": [
                {
                    "subject": "p(HGNC:BRAF)",
                    "relation": "increases",
                    "object": "bp(GO:negative regulation of apoptotic process )"
                }
            ],
            "annotations": [
                {
                    "type": "Species",
                    "id": "TAX:9606",
                    "label": "human"
                }
            ],
            "database": {
                "uri_db": "https://amp.pharm.mssm.edu/Enrichr/"
            },
            "metadata": {
                "project": "BMI593_BEL_NSCLC_Fall2019_pat20_v1",
                "gd_creator": "shradha_pat20_v1",
                "note": "BRAF acts as increases of bp(GO:negative regulation of apoptotic process ). This relation may or may not hold true in the context of NSCLC."
            }
        }
    },
    {
        "nanopub": {
            "id": "shradha_pat20_v1_enrichR_GO_10",
            "type": {
                "name": "BEL",
                "version": "2.1.0"
            },
            "citation": {
                "uri": "http://geneontology.org/docs/go-enrichment-analysis/"
            },
            "assertions": [
                {
                    "subject": "p(HGNC:BRAF)",
                    "relation": "increases",
                    "object": "bp(GO:negative regulation of signal transduction )"
                }
            ],
            "annotations": [
                {
                    "type": "Species",
                    "id": "TAX:9606",
                    "label": "human"
                }
            ],
            "database": {
                "uri_db": "https://amp.pharm.mssm.edu/Enrichr/"
            },
            "metadata": {
                "project": "BMI593_BEL_NSCLC_Fall2019_pat20_v1",
                "gd_creator": "shradha_pat20_v1",
                "note": "BRAF acts as increases of bp(GO:negative regulation of signal transduction ). This relation may or may not hold true in the context of NSCLC."
            }
        }
    },
    {
        "nanopub": {
            "id": "shradha_pat20_v1_enrichR_GO_11",
            "type": {
                "name": "BEL",
                "version": "2.1.0"
            },
            "citation": {
                "uri": "http://geneontology.org/docs/go-enrichment-analysis/"
            },
            "assertions": [
                {
                    "subject": "p(HGNC:BRAF)",
                    "relation": "increases",
                    "object": "bp(GO:negative regulation of programmed cell death )"
                }
            ],
            "annotations": [
                {
                    "type": "Species",
                    "id": "TAX:9606",
                    "label": "human"
                }
            ],
            "database": {
                "uri_db": "https://amp.pharm.mssm.edu/Enrichr/"
            },
            "metadata": {
                "project": "BMI593_BEL_NSCLC_Fall2019_pat20_v1",
                "gd_creator": "shradha_pat20_v1",
                "note": "BRAF acts as increases of bp(GO:negative regulation of programmed cell death ). This relation may or may not hold true in the context of NSCLC."
            }
        }
    },
    {
        "nanopub": {
            "id": "shradha_pat20_v1_enrichR_GO_12",
            "type": {
                "name": "BEL",
                "version": "2.1.0"
            },
            "citation": {
                "uri": "http://geneontology.org/docs/go-enrichment-analysis/"
            },
            "assertions": [
                {
                    "subject": "p(HGNC:BRAF)",
                    "relation": "increases",
                    "object": "bp(GO:positive regulation of MAPK cascade )"
                }
            ],
            "annotations": [
                {
                    "type": "Species",
                    "id": "TAX:9606",
                    "label": "human"
                }
            ],
            "database": {
                "uri_db": "https://amp.pharm.mssm.edu/Enrichr/"
            },
            "metadata": {
                "project": "BMI593_BEL_NSCLC_Fall2019_pat20_v1",
                "gd_creator": "shradha_pat20_v1",
                "note": "BRAF acts as increases of bp(GO:positive regulation of MAPK cascade ). This relation may or may not hold true in the context of NSCLC."
            }
        }
    },
    {
        "nanopub": {
            "id": "shradha_pat20_v1_enrichR_GO_13",
            "type": {
                "name": "BEL",
                "version": "2.1.0"
            },
            "citation": {
                "uri": "http://geneontology.org/docs/go-enrichment-analysis/"
            },
            "assertions": [
                {
                    "subject": "p(HGNC:BRAF)",
                    "relation": "increases",
                    "object": "bp(GO:protein phosphorylation )"
                }
            ],
            "annotations": [
                {
                    "type": "Species",
                    "id": "TAX:9606",
                    "label": "human"
                }
            ],
            "database": {
                "uri_db": "https://amp.pharm.mssm.edu/Enrichr/"
            },
            "metadata": {
                "project": "BMI593_BEL_NSCLC_Fall2019_pat20_v1",
                "gd_creator": "shradha_pat20_v1",
                "note": "BRAF acts as increases of bp(GO:protein phosphorylation ). This relation may or may not hold true in the context of NSCLC."
            }
        }
    },
    {
        "nanopub": {
            "id": "shradha_pat20_v1_enrichR_GO_14",
            "type": {
                "name": "BEL",
                "version": "2.1.0"
            },
            "citation": {
                "uri": "http://geneontology.org/docs/go-enrichment-analysis/"
            },
            "assertions": [
                {
                    "subject": "p(HGNC:BRAF)",
                    "relation": "increases",
                    "object": "bp(GO:positive regulation of gene expression )"
                }
            ],
            "annotations": [
                {
                    "type": "Species",
                    "id": "TAX:9606",
                    "label": "human"
                }
            ],
            "database": {
                "uri_db": "https://amp.pharm.mssm.edu/Enrichr/"
            },
            "metadata": {
                "project": "BMI593_BEL_NSCLC_Fall2019_pat20_v1",
                "gd_creator": "shradha_pat20_v1",
                "note": "BRAF acts as increases of bp(GO:positive regulation of gene expression ). This relation may or may not hold true in the context of NSCLC."
            }
        }
    },
    {
        "nanopub": {
            "id": "shradha_pat20_v1_enrichR_GO_15",
            "type": {
                "name": "BEL",
                "version": "2.1.0"
            },
            "citation": {
                "uri": "http://geneontology.org/docs/go-enrichment-analysis/"
            },
            "assertions": [
                {
                    "subject": "p(HGNC:BRAF)",
                    "relation": "increases",
                    "object": "bp(GO:MAPK cascade )"
                }
            ],
            "annotations": [
                {
                    "type": "Species",
                    "id": "TAX:9606",
                    "label": "human"
                }
            ],
            "database": {
                "uri_db": "https://amp.pharm.mssm.edu/Enrichr/"
            },
            "metadata": {
                "project": "BMI593_BEL_NSCLC_Fall2019_pat20_v1",
                "gd_creator": "shradha_pat20_v1",
                "note": "BRAF acts as increases of bp(GO:MAPK cascade ). This relation may or may not hold true in the context of NSCLC."
            }
        }
    },
    {
        "nanopub": {
            "id": "shradha_pat20_v1_enrichR_GO_16",
            "type": {
                "name": "BEL",
                "version": "2.1.0"
            },
            "citation": {
                "uri": "http://geneontology.org/docs/go-enrichment-analysis/"
            },
            "assertions": [
                {
                    "subject": "p(HGNC:BRAF)",
                    "relation": "increases",
                    "object": "bp(GO:regulation of gene expression )"
                }
            ],
            "annotations": [
                {
                    "type": "Species",
                    "id": "TAX:9606",
                    "label": "human"
                }
            ],
            "database": {
                "uri_db": "https://amp.pharm.mssm.edu/Enrichr/"
            },
            "metadata": {
                "project": "BMI593_BEL_NSCLC_Fall2019_pat20_v1",
                "gd_creator": "shradha_pat20_v1",
                "note": "BRAF acts as increases of bp(GO:regulation of gene expression ). This relation may or may not hold true in the context of NSCLC."
            }
        }
    },
    {
        "nanopub": {
            "id": "shradha_pat20_v1_enrichR_GO_17",
            "type": {
                "name": "BEL",
                "version": "2.1.0"
            },
            "citation": {
                "uri": "http://geneontology.org/docs/go-enrichment-analysis/"
            },
            "assertions": [
                {
                    "subject": "p(HGNC:PTPRD)",
                    "relation": "increases",
                    "object": "bp(GO:enzyme linked receptor protein signaling pathway )"
                }
            ],
            "annotations": [
                {
                    "type": "Species",
                    "id": "TAX:9606",
                    "label": "human"
                }
            ],
            "database": {
                "uri_db": "https://amp.pharm.mssm.edu/Enrichr/"
            },
            "metadata": {
                "project": "BMI593_BEL_NSCLC_Fall2019_pat20_v1",
                "gd_creator": "shradha_pat20_v1",
                "note": "PTPRD acts as increases of bp(GO:enzyme linked receptor protein signaling pathway ). This relation may or may not hold true in the context of NSCLC."
            }
        }
    },
    {
        "nanopub": {
            "id": "shradha_pat20_v1_enrichR_GO_18",
            "type": {
                "name": "BEL",
                "version": "2.1.0"
            },
            "citation": {
                "uri": "http://geneontology.org/docs/go-enrichment-analysis/"
            },
            "assertions": [
                {
                    "subject": "p(HGNC:PTPRD)",
                    "relation": "increases",
                    "object": "bp(GO:neuron differentiation )"
                }
            ],
            "annotations": [
                {
                    "type": "Species",
                    "id": "TAX:9606",
                    "label": "human"
                }
            ],
            "database": {
                "uri_db": "https://amp.pharm.mssm.edu/Enrichr/"
            },
            "metadata": {
                "project": "BMI593_BEL_NSCLC_Fall2019_pat20_v1",
                "gd_creator": "shradha_pat20_v1",
                "note": "PTPRD acts as increases of bp(GO:neuron differentiation ). This relation may or may not hold true in the context of NSCLC."
            }
        }
    },
    {
        "nanopub": {
            "id": "shradha_pat20_v1_enrichR_GO_19",
            "type": {
                "name": "BEL",
                "version": "2.1.0"
            },
            "citation": {
                "uri": "http://geneontology.org/docs/go-enrichment-analysis/"
            },
            "assertions": [
                {
                    "subject": "p(HGNC:BRAF)",
                    "relation": "increases",
                    "object": "bp(GO:phosphorylation )"
                }
            ],
            "annotations": [
                {
                    "type": "Species",
                    "id": "TAX:9606",
                    "label": "human"
                }
            ],
            "database": {
                "uri_db": "https://amp.pharm.mssm.edu/Enrichr/"
            },
            "metadata": {
                "project": "BMI593_BEL_NSCLC_Fall2019_pat20_v1",
                "gd_creator": "shradha_pat20_v1",
                "note": "BRAF acts as increases of bp(GO:phosphorylation ). This relation may or may not hold true in the context of NSCLC."
            }
        }
    },
    {
        "nanopub": {
            "id": "shradha_pat20_v1_enrichR_GO_20",
            "type": {
                "name": "BEL",
                "version": "2.1.0"
            },
            "citation": {
                "uri": "http://geneontology.org/docs/go-enrichment-analysis/"
            },
            "assertions": [
                {
                    "subject": "p(HGNC:BRAF)",
                    "relation": "increases",
                    "object": "bp(GO:positive regulation of peptidyl-serine phosphorylation )"
                }
            ],
            "annotations": [
                {
                    "type": "Species",
                    "id": "TAX:9606",
                    "label": "human"
                }
            ],
            "database": {
                "uri_db": "https://amp.pharm.mssm.edu/Enrichr/"
            },
            "metadata": {
                "project": "BMI593_BEL_NSCLC_Fall2019_pat20_v1",
                "gd_creator": "shradha_pat20_v1",
                "note": "BRAF acts as increases of bp(GO:positive regulation of peptidyl-serine phosphorylation ). This relation may or may not hold true in the context of NSCLC."
            }
        }
    },
    {
        "nanopub": {
            "id": "shradha_pat20_v1_enrichR_GO_21",
            "type": {
                "name": "BEL",
                "version": "2.1.0"
            },
            "citation": {
                "uri": "http://geneontology.org/docs/go-enrichment-analysis/"
            },
            "assertions": [
                {
                    "subject": "p(HGNC:BRAF)",
                    "relation": "increases",
                    "object": "bp(GO:regulation of peptidyl-serine phosphorylation )"
                }
            ],
            "annotations": [
                {
                    "type": "Species",
                    "id": "TAX:9606",
                    "label": "human"
                }
            ],
            "database": {
                "uri_db": "https://amp.pharm.mssm.edu/Enrichr/"
            },
            "metadata": {
                "project": "BMI593_BEL_NSCLC_Fall2019_pat20_v1",
                "gd_creator": "shradha_pat20_v1",
                "note": "BRAF acts as increases of bp(GO:regulation of peptidyl-serine phosphorylation ). This relation may or may not hold true in the context of NSCLC."
            }
        }
    },
    {
        "nanopub": {
            "id": "shradha_pat20_v1_enrichR_GO_22",
            "type": {
                "name": "BEL",
                "version": "2.1.0"
            },
            "citation": {
                "uri": "http://geneontology.org/docs/go-enrichment-analysis/"
            },
            "assertions": [
                {
                    "subject": "p(HGNC:BRAF)",
                    "relation": "increases",
                    "object": "bp(GO:positive regulation of macromolecule metabolic process )"
                }
            ],
            "annotations": [
                {
                    "type": "Species",
                    "id": "TAX:9606",
                    "label": "human"
                }
            ],
            "database": {
                "uri_db": "https://amp.pharm.mssm.edu/Enrichr/"
            },
            "metadata": {
                "project": "BMI593_BEL_NSCLC_Fall2019_pat20_v1",
                "gd_creator": "shradha_pat20_v1",
                "note": "BRAF acts as increases of bp(GO:positive regulation of macromolecule metabolic process ). This relation may or may not hold true in the context of NSCLC."
            }
        }
    }
]