[
    {
        "nanopub": {
            "id": "shradha_pat2_v1_PCViz_1",
            "type": {
                "name": "BEL",
                "version": "2.1.0"
            },
            "citation": {
                "uri": "https://www.ncbi.nlm.nih.gov/pubmed"
            },
            "assertions": [
                {
                    "subject": "p(HGNC:BRAF)",
                    "relation": "in-complex-with",
                    "object": "p(HGNC:KRAS)"
                }
            ],
            "annotations": [
                {
                    "type": "Species",
                    "id": "TAX:9606",
                    "label": "human"
                }
            ],
            "database": {
                "uri_db": "https://www.ncbi.nlm.nih.gov/pubmed"
            },
            "metadata": {
                "project": "BMI593_BEL_NSCLC_Fall2019_pat2_v1",
                "gd_creator": "shradha_pat2_v1",
                "note": "BRAF acts as in-complex-with of p(HGNC:KRAS). This relation may or may not hold true in the context of NSCLC."
            }
        }
    },
    {
        "nanopub": {
            "id": "shradha_pat2_v1_PCViz_2",
            "type": {
                "name": "BEL",
                "version": "2.1.0"
            },
            "citation": {
                "uri": "https://www.ncbi.nlm.nih.gov/pubmed"
            },
            "assertions": [
                {
                    "subject": "p(HGNC:CD86)",
                    "relation": "in-complex-with",
                    "object": "p(HGNC:PIK3CA)"
                }
            ],
            "annotations": [
                {
                    "type": "Species",
                    "id": "TAX:9606",
                    "label": "human"
                }
            ],
            "database": {
                "uri_db": "https://www.ncbi.nlm.nih.gov/pubmed"
            },
            "metadata": {
                "project": "BMI593_BEL_NSCLC_Fall2019_pat2_v1",
                "gd_creator": "shradha_pat2_v1",
                "note": "CD86 acts as in-complex-with of p(HGNC:PIK3CA). This relation may or may not hold true in the context of NSCLC."
            }
        }
    },
    {
        "nanopub": {
            "id": "shradha_pat2_v1_PCViz_3",
            "type": {
                "name": "BEL",
                "version": "2.1.0"
            },
            "citation": {
                "uri": "https://www.ncbi.nlm.nih.gov/pubmed"
            },
            "assertions": [
                {
                    "subject": "p(HGNC:DLG3)",
                    "relation": "controls-state-change-of",
                    "object": "p(HGNC:KRAS)"
                }
            ],
            "annotations": [
                {
                    "type": "Species",
                    "id": "TAX:9606",
                    "label": "human"
                }
            ],
            "database": {
                "uri_db": "https://www.ncbi.nlm.nih.gov/pubmed"
            },
            "metadata": {
                "project": "BMI593_BEL_NSCLC_Fall2019_pat2_v1",
                "gd_creator": "shradha_pat2_v1",
                "note": "DLG3 acts as controls-state-change-of of p(HGNC:KRAS). This relation may or may not hold true in the context of NSCLC."
            }
        }
    },
    {
        "nanopub": {
            "id": "shradha_pat2_v1_PCViz_4",
            "type": {
                "name": "BEL",
                "version": "2.1.0"
            },
            "citation": {
                "uri": "https://www.ncbi.nlm.nih.gov/pubmed"
            },
            "assertions": [
                {
                    "subject": "p(HGNC:MAX)",
                    "relation": "controls-expression-of",
                    "object": "p(HGNC:CDKN2B)"
                }
            ],
            "annotations": [
                {
                    "type": "Species",
                    "id": "TAX:9606",
                    "label": "human"
                }
            ],
            "database": {
                "uri_db": "https://www.ncbi.nlm.nih.gov/pubmed"
            },
            "metadata": {
                "project": "BMI593_BEL_NSCLC_Fall2019_pat2_v1",
                "gd_creator": "shradha_pat2_v1",
                "note": "MAX acts as controls-expression-of of p(HGNC:CDKN2B). This relation may or may not hold true in the context of NSCLC."
            }
        }
    },
    {
        "nanopub": {
            "id": "shradha_pat2_v1_PCViz_5",
            "type": {
                "name": "BEL",
                "version": "2.1.0"
            },
            "citation": {
                "uri": "https://www.ncbi.nlm.nih.gov/pubmed"
            },
            "assertions": [
                {
                    "subject": "p(HGNC:MAX)",
                    "relation": "in-complex-with",
                    "object": "p(HGNC:SMAD4)"
                }
            ],
            "annotations": [
                {
                    "type": "Species",
                    "id": "TAX:9606",
                    "label": "human"
                }
            ],
            "database": {
                "uri_db": "https://www.ncbi.nlm.nih.gov/pubmed"
            },
            "metadata": {
                "project": "BMI593_BEL_NSCLC_Fall2019_pat2_v1",
                "gd_creator": "shradha_pat2_v1",
                "note": "MAX acts as in-complex-with of p(HGNC:SMAD4). This relation may or may not hold true in the context of NSCLC."
            }
        }
    },
    {
        "nanopub": {
            "id": "shradha_pat2_v1_PCViz_6",
            "type": {
                "name": "BEL",
                "version": "2.1.0"
            },
            "citation": {
                "uri": "https://www.ncbi.nlm.nih.gov/pubmed"
            },
            "assertions": [
                {
                    "subject": "p(HGNC:RAD50)",
                    "relation": "controls-phosphorylation-of",
                    "object": "p(HGNC:TP53)"
                }
            ],
            "annotations": [
                {
                    "type": "Species",
                    "id": "TAX:9606",
                    "label": "human"
                }
            ],
            "database": {
                "uri_db": "https://www.ncbi.nlm.nih.gov/pubmed"
            },
            "metadata": {
                "project": "BMI593_BEL_NSCLC_Fall2019_pat2_v1",
                "gd_creator": "shradha_pat2_v1",
                "note": "RAD50 acts as controls-phosphorylation-of of p(HGNC:TP53). This relation may or may not hold true in the context of NSCLC."
            }
        }
    },
    {
        "nanopub": {
            "id": "shradha_pat2_v1_PCViz_7",
            "type": {
                "name": "BEL",
                "version": "2.1.0"
            },
            "citation": {
                "uri": "https://www.ncbi.nlm.nih.gov/pubmed"
            },
            "assertions": [
                {
                    "subject": "p(HGNC:RAD50)",
                    "relation": "controls-state-change-of",
                    "object": "p(HGNC:TP53)"
                }
            ],
            "annotations": [
                {
                    "type": "Species",
                    "id": "TAX:9606",
                    "label": "human"
                }
            ],
            "database": {
                "uri_db": "https://www.ncbi.nlm.nih.gov/pubmed"
            },
            "metadata": {
                "project": "BMI593_BEL_NSCLC_Fall2019_pat2_v1",
                "gd_creator": "shradha_pat2_v1",
                "note": "RAD50 acts as controls-state-change-of of p(HGNC:TP53). This relation may or may not hold true in the context of NSCLC."
            }
        }
    },
    {
        "nanopub": {
            "id": "shradha_pat2_v1_PCViz_8",
            "type": {
                "name": "BEL",
                "version": "2.1.0"
            },
            "citation": {
                "uri": "https://www.ncbi.nlm.nih.gov/pubmed"
            },
            "assertions": [
                {
                    "subject": "p(HGNC:SPTA1)",
                    "relation": "controls-state-change-of",
                    "object": "p(HGNC:KRAS)"
                }
            ],
            "annotations": [
                {
                    "type": "Species",
                    "id": "TAX:9606",
                    "label": "human"
                }
            ],
            "database": {
                "uri_db": "https://www.ncbi.nlm.nih.gov/pubmed"
            },
            "metadata": {
                "project": "BMI593_BEL_NSCLC_Fall2019_pat2_v1",
                "gd_creator": "shradha_pat2_v1",
                "note": "SPTA1 acts as controls-state-change-of of p(HGNC:KRAS). This relation may or may not hold true in the context of NSCLC."
            }
        }
    }
]