[
    {
        "nanopub": {
            "id": "shradha_pat6_v1_clinvar_1",
            "type": {
                "name": "BEL",
                "version": "2.1.0"
            },
            "citation": {
                "uri": "https://www.ncbi.nlm.nih.gov/clinvar/variation/45225"
            },
            "assertions": [
                {
                    "subject": "p(REFSEQ:NM_005228.4, var(p.Gly719Ala))",
                    "relation": "increases",
                    "object": "path(MESH:\"Carcinoma, Non-Small-Cell Lung\")"
                }
            ],
            "annotations": [
                {
                    "type": "Species",
                    "id": "TAX:9606",
                    "label": "human"
                }
            ],
            "metadata": {
                "project": "BMI593_BEL_NSCLC_Fall2019_pat6_v1",
                "gd_creator": "shradha_pat6_v1",
                "note": "EGFR mutation increases non-small cell lung cancer"
            }
        }
    },
    {
        "nanopub": {
            "id": "shradha_pat6_v1_clinvar_2",
            "type": {
                "name": "BEL",
                "version": "2.1.0"
            },
            "citation": {
                "uri": "https://www.ncbi.nlm.nih.gov/clinvar/variation/45251"
            },
            "assertions": [
                {
                    "subject": "p(REFSEQ:NM_005228.4, var(p.Ser768Ile))",
                    "relation": "increases",
                    "object": "path(MESH:\"Carcinoma, Non-Small-Cell Lung\")"
                }
            ],
            "annotations": [
                {
                    "type": "Species",
                    "id": "TAX:9606",
                    "label": "human"
                }
            ],
            "metadata": {
                "project": "BMI593_BEL_NSCLC_Fall2019_pat6_v1",
                "gd_creator": "shradha_pat6_v1",
                "note": "EGFR mutation increases non-small cell lung cancer"
            }
        }
    },
    {
        "nanopub": {
            "id": "shradha_pat6_v1_clinvar_3",
            "type": {
                "name": "BEL",
                "version": "2.1.0"
            },
            "citation": {
                "uri": "https://www.ncbi.nlm.nih.gov/clinvar/variation/45279"
            },
            "assertions": [
                {
                    "subject": "p(REFSEQ:NM_005228.4, var(p.Val834Leu))",
                    "relation": "increases",
                    "object": "path(MESH:\"Carcinoma, Non-Small-Cell Lung\")"
                }
            ],
            "annotations": [
                {
                    "type": "Species",
                    "id": "TAX:9606",
                    "label": "human"
                }
            ],
            "metadata": {
                "project": "BMI593_BEL_NSCLC_Fall2019_pat6_v1",
                "gd_creator": "shradha_pat6_v1",
                "note": "EGFR mutation increases non-small cell lung cancer"
            }
        }
    },
    {
        "nanopub": {
            "id": "shradha_pat6_v1_clinvar_4",
            "type": {
                "name": "BEL",
                "version": "2.1.0"
            },
            "citation": {
                "uri": "https://www.ncbi.nlm.nih.gov/clinvar/variation/45220"
            },
            "assertions": [
                {
                    "subject": "p(REFSEQ:NM_005228.4, var(p.Glu709_Thr710delinsAsp))",
                    "relation": "increases",
                    "object": "path(MESH:\"Carcinoma, Non-Small-Cell Lung\")"
                }
            ],
            "annotations": [
                {
                    "type": "Species",
                    "id": "TAX:9606",
                    "label": "human"
                }
            ],
            "metadata": {
                "project": "BMI593_BEL_NSCLC_Fall2019_pat6_v1",
                "gd_creator": "shradha_pat6_v1",
                "note": "EGFR mutation increases non-small cell lung cancer"
            }
        }
    },
    {
        "nanopub": {
            "id": "shradha_pat6_v1_clinvar_5",
            "type": {
                "name": "BEL",
                "version": "2.1.0"
            },
            "citation": {
                "uri": "https://www.ncbi.nlm.nih.gov/clinvar/variation/45252"
            },
            "assertions": [
                {
                    "subject": "p(REFSEQ:NM_005228.4, var(p.Ser768Ile))",
                    "relation": "increases",
                    "object": "path(MESH:\"Carcinoma, Non-Small-Cell Lung\")"
                }
            ],
            "annotations": [
                {
                    "type": "Species",
                    "id": "TAX:9606",
                    "label": "human"
                }
            ],
            "metadata": {
                "project": "BMI593_BEL_NSCLC_Fall2019_pat6_v1",
                "gd_creator": "shradha_pat6_v1",
                "note": "EGFR mutation increases non-small cell lung cancer"
            }
        }
    },
    {
        "nanopub": {
            "id": "shradha_pat6_v1_clinvar_6",
            "type": {
                "name": "BEL",
                "version": "2.1.0"
            },
            "citation": {
                "uri": "https://www.ncbi.nlm.nih.gov/clinvar/variation/45257"
            },
            "assertions": [
                {
                    "subject": "p(REFSEQ:NM_005228.4, var(p.Asp770_Asn771insGlyLeu))",
                    "relation": "increases",
                    "object": "path(MESH:\"Carcinoma, Non-Small-Cell Lung\")"
                }
            ],
            "annotations": [
                {
                    "type": "Species",
                    "id": "TAX:9606",
                    "label": "human"
                }
            ],
            "metadata": {
                "project": "BMI593_BEL_NSCLC_Fall2019_pat6_v1",
                "gd_creator": "shradha_pat6_v1",
                "note": "EGFR mutation increases non-small cell lung cancer"
            }
        }
    },
    {
        "nanopub": {
            "id": "shradha_pat6_v1_clinvar_7",
            "type": {
                "name": "BEL",
                "version": "2.1.0"
            },
            "citation": {
                "uri": "https://www.ncbi.nlm.nih.gov/clinvar/variation/45258"
            },
            "assertions": [
                {
                    "subject": "p(REFSEQ:NM_005228.4, var(p.Asn771_Pro772insHis))",
                    "relation": "increases",
                    "object": "path(MESH:\"Carcinoma, Non-Small-Cell Lung\")"
                }
            ],
            "annotations": [
                {
                    "type": "Species",
                    "id": "TAX:9606",
                    "label": "human"
                }
            ],
            "metadata": {
                "project": "BMI593_BEL_NSCLC_Fall2019_pat6_v1",
                "gd_creator": "shradha_pat6_v1",
                "note": "EGFR mutation increases non-small cell lung cancer"
            }
        }
    },
    {
        "nanopub": {
            "id": "shradha_pat6_v1_clinvar_8",
            "type": {
                "name": "BEL",
                "version": "2.1.0"
            },
            "citation": {
                "uri": "https://www.ncbi.nlm.nih.gov/clinvar/variation/638163"
            },
            "assertions": [
                {
                    "subject": "BADMATCH - NM_005228.4:c.2303_2305delGCGinsTCT",
                    "relation": "increases",
                    "object": "path(MESH:\"Carcinoma, Non-Small-Cell Lung\")"
                }
            ],
            "annotations": [
                {
                    "type": "Species",
                    "id": "TAX:9606",
                    "label": "human"
                }
            ],
            "metadata": {
                "project": "BMI593_BEL_NSCLC_Fall2019_pat6_v1",
                "gd_creator": "shradha_pat6_v1",
                "note": "EGFR mutation increases non-small cell lung cancer"
            }
        }
    }
]