,subject,relation,obj,citations,db_url
108,CHEMBL298734,inhibitor,KRAS,https://www.ncbi.nlm.nih.gov/pubmed/nan,http://www.dgidb.org/interactions/46223e65-239f-42a0-9983-dbbb85a865d8#_summary
109,CHEMBL1946170,inhibitor,KRAS,https://www.ncbi.nlm.nih.gov/pubmed/21170960.0,http://www.dgidb.org/interactions/38b58615-a227-42c3-8904-765a3cf24d9c#_summary
110,CHEMBL1614701,inhibitor,KRAS,https://www.ncbi.nlm.nih.gov/pubmed/26272063.0,http://www.dgidb.org/interactions/5198a64e-2590-4bbf-9d31-9657b38355fa#_summary
111,CHEMBL481,association,KRAS,https://www.ncbi.nlm.nih.gov/pubmed/25567130.0,http://www.dgidb.org/interactions/3727535e-7c06-4915-9730-01b73f20eac3#_summary
112,CHEMBL1201827,association,KRAS,https://www.ncbi.nlm.nih.gov/pubmed/26812186.0,http://www.dgidb.org/interactions/de139144-3653-4e0f-878f-87330b02ab7b#_summary
113,CHEMBL1421,association,KRAS,https://www.ncbi.nlm.nih.gov/pubmed/26855149.0,http://www.dgidb.org/interactions/fb4209a2-310e-40cc-913b-77f5ba0b5e99#_summary
114,CHEMBL325041,association,KRAS,https://www.ncbi.nlm.nih.gov/pubmed/22541434.0,http://www.dgidb.org/interactions/3ad9fdd0-3d12-4095-9126-d2a499222d68#_summary
115,CHEMBL1614766,association,KRAS,https://www.ncbi.nlm.nih.gov/pubmed/26438159.0,http://www.dgidb.org/interactions/e37957a9-d805-4c70-ad0f-6603dcad6e1e#_summary
116,CHEMBL521851,association,KRAS,https://www.ncbi.nlm.nih.gov/pubmed/22084396.0,http://www.dgidb.org/interactions/f909a4e4-58bc-48a1-a5f1-d6504e081874#_summary
117,CHEMBL185,association,KRAS,https://www.ncbi.nlm.nih.gov/pubmed/26341920.0,http://www.dgidb.org/interactions/841e1dd6-fbb3-4e06-adea-dba1bcc3cccc#_summary
118,CHEMBL3707227,association,KRAS,https://www.ncbi.nlm.nih.gov/pubmed/25609064.0,http://www.dgidb.org/interactions/4ac52b92-5854-44c7-b3b8-12ee41b2d5bf#_summary
119,CHEMBL3184679,association,KRAS,https://www.ncbi.nlm.nih.gov/pubmed/27338794.0,http://www.dgidb.org/interactions/fa0b49ca-291a-4ed3-9f81-6f272783ad3a#_summary
120,CHEMBL3545154,association,KRAS,https://www.ncbi.nlm.nih.gov/pubmed/21306821.0,http://www.dgidb.org/interactions/742b30f8-717e-4ef4-8926-028b2e69fc73#_summary
121,CHEMBL3545245,association,KRAS,https://www.ncbi.nlm.nih.gov/pubmed/nan,http://www.dgidb.org/interactions/de29788c-c18e-46d9-b2f5-798ba8d86c0e#_summary
122,CHEMBL428462,association,KRAS,https://www.ncbi.nlm.nih.gov/pubmed/24978597.0,http://www.dgidb.org/interactions/4e68ef6b-b393-4b08-8873-3d478e1ff620#_summary
123,CHEMBL1879463,association,KRAS,https://www.ncbi.nlm.nih.gov/pubmed/26272063.0,http://www.dgidb.org/interactions/1cd42a00-24d4-4954-a50b-dc97fbbb4c58#_summary
124,CHEMBL1743047,association,KRAS,https://www.ncbi.nlm.nih.gov/pubmed/26766738.0,http://www.dgidb.org/interactions/0fd8e45c-0dc2-42d2-b145-8188845734ff#_summary
125,CHEMBL2108738,association,KRAS,https://www.ncbi.nlm.nih.gov/pubmed/28525386.0,http://www.dgidb.org/interactions/0867c6c0-535e-4222-aeb2-1217a462b528#_summary
126,CHEMBL1231206,association,KRAS,https://www.ncbi.nlm.nih.gov/pubmed/26140595.0,http://www.dgidb.org/interactions/89fbcdca-8615-44b7-8532-0d1ba3d65c3d#_summary
127,CHEMBL3545366,association,KRAS,https://www.ncbi.nlm.nih.gov/pubmed/24634413.0,http://www.dgidb.org/interactions/7787c5f2-4ce0-4c87-9e39-eb7fb09c17be#_summary
128,CHEMBL217354,association,KRAS,https://www.ncbi.nlm.nih.gov/pubmed/25665005.0,http://www.dgidb.org/interactions/ed2a447d-f5f4-4bd3-a24c-eb4e01a829e3#_summary
129,CHEMBL592445,association,KRAS,https://www.ncbi.nlm.nih.gov/pubmed/24042735.0,http://www.dgidb.org/interactions/bd8620a0-41a8-467e-b8fe-7d2a3178fc06#_summary
130,CHEMBL3137343,association,KRAS,https://www.ncbi.nlm.nih.gov/pubmed/28039262.0,http://www.dgidb.org/interactions/439348b3-ae5b-4030-b3fc-70deeb78015c#_summary
131,CHEMBL2103839,association,KRAS,https://www.ncbi.nlm.nih.gov/pubmed/26725216.0,http://www.dgidb.org/interactions/fa14f55f-fd38-44ac-b43f-7c3696374b9f#_summary
132,CHEMBL525191,association,KRAS,https://www.ncbi.nlm.nih.gov/pubmed/19276360.0,http://www.dgidb.org/interactions/2833e307-ce5f-4ae3-904c-f83c82550827#_summary
133,CHEMBL1743079,association,KRAS,https://www.ncbi.nlm.nih.gov/pubmed/21985784.0,http://www.dgidb.org/interactions/3dcae6ce-ba2f-4521-85bb-32851c02f785#_summary
134,CHEMBL2138601,association,KRAS,https://www.ncbi.nlm.nih.gov/pubmed/26582713.0,http://www.dgidb.org/interactions/d3db1f0b-533a-4cce-8c03-dc15dc29a21e#_summary
135,CHEMBL3545049,association,KRAS,https://www.ncbi.nlm.nih.gov/pubmed/27699769.0,http://www.dgidb.org/interactions/62d34cd6-1fa4-4540-930f-ba7a47665af6#_summary
136,CHEMBL2364626,association,KRAS,https://www.ncbi.nlm.nih.gov/pubmed/26725216.0,http://www.dgidb.org/interactions/07c94781-9f5d-4efd-bd7c-701db90b2d1d#_summary
137,CHEMBL483254,association,KRAS,https://www.ncbi.nlm.nih.gov/pubmed/22693356.0,http://www.dgidb.org/interactions/6cd836b5-c3d4-4cf2-a5c5-dc39ff01e435#_summary
138,CHEMBL2103840,association,KRAS,https://www.ncbi.nlm.nih.gov/pubmed/27550941.0,http://www.dgidb.org/interactions/f5ba4869-0615-4459-8a42-c9cef4b06bed#_summary
139,CHEMBL608533,association,KRAS,https://www.ncbi.nlm.nih.gov/pubmed/26725216.0,http://www.dgidb.org/interactions/a23ce324-fa05-4d9a-9884-2c79827dbe97#_summary
140,CHEMBL1351,association,KRAS,https://www.ncbi.nlm.nih.gov/pubmed/25637314.0,http://www.dgidb.org/interactions/aa03ae20-3810-4ffc-ae33-4b4a01440a2f#_summary
141,CHEMBL1200647,association,KRAS,https://www.ncbi.nlm.nih.gov/pubmed/26839307.0,http://www.dgidb.org/interactions/08f73c36-295b-4168-a83d-6a443f250888#_summary
142,CHEMBL443684,association,KRAS,https://www.ncbi.nlm.nih.gov/pubmed/27659046.0,http://www.dgidb.org/interactions/d54a5b2e-edb4-41a9-a20c-68d628ddff14#_summary
143,CHEMBL38380,association,KRAS,https://www.ncbi.nlm.nih.gov/pubmed/22541434.0,http://www.dgidb.org/interactions/0b575c87-c41f-4932-abbc-98e13a85b478#_summary
144,CHEMBL3545195,association,KRAS,https://www.ncbi.nlm.nih.gov/pubmed/26343583.0,http://www.dgidb.org/interactions/ae7369f5-40df-4999-bdff-c8f33b98c910#_summary
145,CHEMBL3545202,association,KRAS,https://www.ncbi.nlm.nih.gov/pubmed/28363999.0,http://www.dgidb.org/interactions/657e12f4-21e9-42cf-a3ac-5026027a0270#_summary
146,CHEMBL1233528,association,KRAS,https://www.ncbi.nlm.nih.gov/pubmed/26597303.0,http://www.dgidb.org/interactions/440b0e37-ef4f-4d4a-9cb2-585fbdb8f418#_summary
147,CHEMBL2387080,association,KRAS,https://www.ncbi.nlm.nih.gov/pubmed/28331003.0,http://www.dgidb.org/interactions/cbbf0ac3-c4fa-48fc-a174-b773f5adb477#_summary
148,CHEMBL2103875,association,KRAS,https://www.ncbi.nlm.nih.gov/pubmed/26343583.0,http://www.dgidb.org/interactions/91e3dff9-03ed-40ea-b200-5a7ad4af0030#_summary
149,CHEMBL1773,association,KRAS,https://www.ncbi.nlm.nih.gov/pubmed/nan,http://www.dgidb.org/interactions/8cbaa165-6a03-4835-aef0-6702f31c8c4c#_summary
150,CHEMBL3218575,association,KRAS,https://www.ncbi.nlm.nih.gov/pubmed/25637314.0,http://www.dgidb.org/interactions/727dc0a5-2ff2-42dd-ba2c-c6044f6c18c6#_summary
151,CHEMBL414804,association,KRAS,https://www.ncbi.nlm.nih.gov/pubmed/26540314.0,http://www.dgidb.org/interactions/c5642ea3-9894-40b7-88d2-08283babcc81#_summary
152,CHEMBL3545022,association,KRAS,https://www.ncbi.nlm.nih.gov/pubmed/26725216.0,http://www.dgidb.org/interactions/c15b5639-498d-45e5-8f1c-04d740505508#_summary
153,CHEMBL1091644,association,KRAS,https://www.ncbi.nlm.nih.gov/pubmed/26725216.0,http://www.dgidb.org/interactions/f6626ed1-0683-4765-ac65-c7fb7ba222d0#_summary
154,CHEMBL92,association,KRAS,https://www.ncbi.nlm.nih.gov/pubmed/24746704.0,http://www.dgidb.org/interactions/2fb6cfc5-f3d9-49c1-bd22-0906a0ccba79#_summary
155,CHEMBL24828,association,KRAS,https://www.ncbi.nlm.nih.gov/pubmed/nan,http://www.dgidb.org/interactions/86f14718-28c6-431f-9b49-891dee30f4f8#_summary
156,CHEMBL3545325,association,KRAS,https://www.ncbi.nlm.nih.gov/pubmed/25504634.0,http://www.dgidb.org/interactions/90c56468-0e73-42f5-a697-88a8ceb64b2c#_summary
157,CHEMBL1976040,association,KRAS,https://www.ncbi.nlm.nih.gov/pubmed/28652249.0,http://www.dgidb.org/interactions/953cfbae-c866-4843-9fb2-9376fffa1ab8#_summary
158,CHEMBL2109384,association,KRAS,https://www.ncbi.nlm.nih.gov/pubmed/26855149.0,http://www.dgidb.org/interactions/0d3975bd-0abb-43c9-8152-427ab816ec17#_summary
159,CHEMBL488436,association,KRAS,https://www.ncbi.nlm.nih.gov/pubmed/26881434.0,http://www.dgidb.org/interactions/2dddb2ef-9301-4742-a32d-2f60d990bb38#_summary
160,CHEMBL3301610,association,KRAS,https://www.ncbi.nlm.nih.gov/pubmed/24746704.0,http://www.dgidb.org/interactions/9e46dafc-d669-4e3b-a752-73950170b1ba#_summary
161,CHEMBL1201258,association,KRAS,https://www.ncbi.nlm.nih.gov/pubmed/27876675.0,http://www.dgidb.org/interactions/8b0cac01-ac47-4afa-bcdd-d0fcf31a5d7f#_summary
162,CHEMBL1336,association,KRAS,https://www.ncbi.nlm.nih.gov/pubmed/23629727.0,http://www.dgidb.org/interactions/7109cbf0-653b-40ea-8167-0b31d38b84e0#_summary
163,CHEMBL252164,association,KRAS,https://www.ncbi.nlm.nih.gov/pubmed/26832792.0,http://www.dgidb.org/interactions/2e552582-9597-4ae5-928a-beda51fb5950#_summary
164,CHEMBL1241855,association,KRAS,https://www.ncbi.nlm.nih.gov/pubmed/27104980.0,http://www.dgidb.org/interactions/103867c8-895b-4ffd-8d3b-59e04588d2b0#_summary
165,CHEMBL3137309,association,KRAS,https://www.ncbi.nlm.nih.gov/pubmed/27974663.0,http://www.dgidb.org/interactions/2e1a1e9e-9ef3-4bd4-9d22-d98b109ab319#_summary
166,CHEMBL69330,association,KRAS,https://www.ncbi.nlm.nih.gov/pubmed/10592235.0,http://www.dgidb.org/interactions/a9c6757e-0da5-4c33-8ee3-34a0822ef723#_summary
167,CHEMBL1852688,association,KRAS,https://www.ncbi.nlm.nih.gov/pubmed/27338794.0,http://www.dgidb.org/interactions/29a585fc-fee9-498d-9a55-5c14e60d9484#_summary
168,CHEMBL64130,association,KRAS,https://www.ncbi.nlm.nih.gov/pubmed/nan,http://www.dgidb.org/interactions/18fcaf86-e621-4068-8540-a193b32fc453#_summary
169,CHEMBL458997,association,KRAS,https://www.ncbi.nlm.nih.gov/pubmed/26090892.0,http://www.dgidb.org/interactions/93a50d8f-cbb3-4211-b9bd-8af27b68e67b#_summary
170,CHEMBL888,association,KRAS,https://www.ncbi.nlm.nih.gov/pubmed/26540314.0,http://www.dgidb.org/interactions/5369fcb6-26a4-4da6-82cb-079dc2be0389#_summary
171,CHEMBL1743063,association,KRAS,https://www.ncbi.nlm.nih.gov/pubmed/24919569.0,http://www.dgidb.org/interactions/76664d9f-4ee7-4f5e-a7e8-61f50be8949b#_summary
172,CHEMBL75133,association,KRAS,https://www.ncbi.nlm.nih.gov/pubmed/nan,http://www.dgidb.org/interactions/43ddf699-d1e5-4b70-bf63-b26a75da5216#_summary
173,CHEMBL402548,association,KRAS,https://www.ncbi.nlm.nih.gov/pubmed/26725216.0,http://www.dgidb.org/interactions/06dacb6c-c0d4-42a8-b0b5-db0b6c817a1b#_summary
174,CHEMBL3348923,association,KRAS,https://www.ncbi.nlm.nih.gov/pubmed/nan,http://www.dgidb.org/interactions/61f147b7-6cc8-401f-b24d-11c971557ebb#_summary
175,CHEMBL1922094,association,KRAS,https://www.ncbi.nlm.nih.gov/pubmed/25673820.0,http://www.dgidb.org/interactions/59ebed38-76ef-4fea-b27d-002be02e6a22#_summary
176,CHEMBL2178577,association,KRAS,https://www.ncbi.nlm.nih.gov/pubmed/19755509.0,http://www.dgidb.org/interactions/0b99854d-dc26-4e82-8efc-0977804250b9#_summary
177,CHEMBL941,association,KRAS,https://www.ncbi.nlm.nih.gov/pubmed/nan,http://www.dgidb.org/interactions/98a1f90c-a2f9-4c78-8719-564dd4eb9fc5#_summary
178,CHEMBL554,association,KRAS,https://www.ncbi.nlm.nih.gov/pubmed/27108243.0,http://www.dgidb.org/interactions/1519109d-f8b2-4670-9dcd-75a6cd11d435#_summary
179,CHEMBL848,association,KRAS,https://www.ncbi.nlm.nih.gov/pubmed/27458141.0,http://www.dgidb.org/interactions/d6cebd74-deeb-4f1a-8254-f463ff2d123f#_summary
180,CHEMBL939,association,KRAS,https://www.ncbi.nlm.nih.gov/pubmed/15696205.0,http://www.dgidb.org/interactions/c7e9be3b-5a6a-4bf0-a1e5-6fc49a9846cf#_summary
181,CHEMBL376408,association,KRAS,https://www.ncbi.nlm.nih.gov/pubmed/21468686.0,http://www.dgidb.org/interactions/1db67104-b7cb-4aa5-8509-b413f90a3e36#_summary
182,CHEMBL56543,association,KRAS,https://www.ncbi.nlm.nih.gov/pubmed/22159814.0,http://www.dgidb.org/interactions/0f58686d-8ccc-41b0-a6d7-c73b6e3823f4#_summary
183,CHEMBL1743062,association,KRAS,https://www.ncbi.nlm.nih.gov/pubmed/25877855.0,http://www.dgidb.org/interactions/f6bb6c54-dc7d-4a39-9beb-23bc8e9f7c9d#_summary
184,CHEMBL3545052,association,KRAS,https://www.ncbi.nlm.nih.gov/pubmed/22693356.0,http://www.dgidb.org/interactions/1db867d3-3553-4a13-a86e-32132f772658#_summary
185,CHEMBL1234354,association,KRAS,https://www.ncbi.nlm.nih.gov/pubmed/26725216.0,http://www.dgidb.org/interactions/96c91777-0e51-475c-a029-a0de836b164d#_summary
186,CHEMBL413,association,KRAS,https://www.ncbi.nlm.nih.gov/pubmed/26144316.0,http://www.dgidb.org/interactions/4f98b881-a416-47e6-84b8-a64b478bb312#_summary
187,CHEMBL2109389,association,KRAS,https://www.ncbi.nlm.nih.gov/pubmed/23209031.0,http://www.dgidb.org/interactions/5389db83-4a59-4ef8-9fcc-41989240fe04#_summary
188,CHEMBL180022,association,KRAS,https://www.ncbi.nlm.nih.gov/pubmed/26725216.0,http://www.dgidb.org/interactions/0b6b7fad-032d-459a-b65e-20714f20f6e9#_summary
189,CHEMBL3544960,association,KRAS,https://www.ncbi.nlm.nih.gov/pubmed/22781553.0,http://www.dgidb.org/interactions/4cdeb7a0-1fa5-438f-bd5a-2d368f6b8b9b#_summary
190,CHEMBL1201129,association,KRAS,https://www.ncbi.nlm.nih.gov/pubmed/25968887.0,http://www.dgidb.org/interactions/d8c9b809-b85b-478c-8f36-c6a71ca5310d#_summary
191,CHEMBL382590,association,KRAS,https://www.ncbi.nlm.nih.gov/pubmed/26842935.0,http://www.dgidb.org/interactions/6d96223a-7597-4ef7-9218-827c8cc899ee#_summary
192,CHEMBL3218576,association,KRAS,https://www.ncbi.nlm.nih.gov/pubmed/24170767.0,http://www.dgidb.org/interactions/d1de1c30-5145-4620-8931-5b431800fda6#_summary
193,CHEMBL558752,association,KRAS,https://www.ncbi.nlm.nih.gov/pubmed/25199829.0,http://www.dgidb.org/interactions/aec308be-9c36-499d-a162-65217ba68812#_summary
194,CHEMBL1201577,association,KRAS,https://www.ncbi.nlm.nih.gov/pubmed/26812186.0,http://www.dgidb.org/interactions/8f24cce4-f320-40c9-958e-2214ff291b07#_summary
195,CHEMBL1213490,association,KRAS,https://www.ncbi.nlm.nih.gov/pubmed/nan,http://www.dgidb.org/interactions/74a3d1a7-ebe3-42ba-a9d0-1801a7d34e56#_summary
196,CHEMBL589258,association,KRAS,https://www.ncbi.nlm.nih.gov/pubmed/20371716.0,http://www.dgidb.org/interactions/306f8bc8-21d8-4433-b7ae-5e0ec09b2c0e#_summary
197,CHEMBL1615025,association,KRAS,https://www.ncbi.nlm.nih.gov/pubmed/26439693.0,http://www.dgidb.org/interactions/577e121f-46c6-41f7-8121-13da86e41296#_summary
198,CHEMBL3187723,association,KRAS,https://www.ncbi.nlm.nih.gov/pubmed/25609064.0,http://www.dgidb.org/interactions/c721b473-779f-4491-a796-0bb6f23b25d3#_summary
199,CHEMBL2177390,association,KRAS,https://www.ncbi.nlm.nih.gov/pubmed/26725216.0,http://www.dgidb.org/interactions/c9cc8775-ba22-4504-8095-fc6e973f3498#_summary
200,CHEMBL1229517,association,KRAS,https://www.ncbi.nlm.nih.gov/pubmed/27312529.0,http://www.dgidb.org/interactions/0fe0ba38-161a-4bf2-a41b-50c90775a701#_summary
201,CHEMBL105442,association,KRAS,https://www.ncbi.nlm.nih.gov/pubmed/19018267.0,http://www.dgidb.org/interactions/09be45cb-0311-4d2f-ad21-6a5ff926c97e#_summary
202,CHEMBL189963,association,KRAS,https://www.ncbi.nlm.nih.gov/pubmed/25609064.0,http://www.dgidb.org/interactions/fbd5bc66-1f5c-40da-a73e-870fafebc412#_summary
203,CHEMBL393417,association,KRAS,https://www.ncbi.nlm.nih.gov/pubmed/24978597.0,http://www.dgidb.org/interactions/7b07681c-07a2-4508-9790-a16f2175a027#_summary
204,CHEMBL521686,association,KRAS,https://www.ncbi.nlm.nih.gov/pubmed/28363999.0,http://www.dgidb.org/interactions/282a1cea-e564-4259-b273-69bb375960ed#_summary
205,CHEMBL1908360,association,KRAS,https://www.ncbi.nlm.nih.gov/pubmed/23629727.0,http://www.dgidb.org/interactions/037da5c0-9e57-443a-8373-b8f0f413844c#_summary
206,CHEMBL3545151,association,KRAS,https://www.ncbi.nlm.nih.gov/pubmed/24978597.0,http://www.dgidb.org/interactions/3bae8a7f-8a6d-464f-b4b5-587d93ef28fc#_summary
207,CHEMBL3353410,association,KRAS,https://www.ncbi.nlm.nih.gov/pubmed/25870145.0,http://www.dgidb.org/interactions/d58c543c-7d85-46bd-ab3f-701a417169ff#_summary
208,CHEMBL217092,association,KRAS,https://www.ncbi.nlm.nih.gov/pubmed/27231123.0,http://www.dgidb.org/interactions/b47a68bc-cced-41ad-bf8e-5eea9940dd50#_summary
209,CHEMBL2105717,association,KRAS,https://www.ncbi.nlm.nih.gov/pubmed/21170960.0,http://www.dgidb.org/interactions/d915f827-a5ae-4540-9277-89d524abbb2e#_summary
210,CHEMBL1201583,association,KRAS,https://www.ncbi.nlm.nih.gov/pubmed/28632865.0,http://www.dgidb.org/interactions/fae516f4-e155-4c71-9fd3-0c1515565bad#_summary
211,CHEMBL1201752,association,KRAS,https://www.ncbi.nlm.nih.gov/pubmed/26864210.0,http://www.dgidb.org/interactions/ad9ec1e1-e22b-44ab-a6f2-2caa30f2ebe1#_summary
212,CHEMBL3545322,association,KRAS,https://www.ncbi.nlm.nih.gov/pubmed/nan,http://www.dgidb.org/interactions/dc7b47ab-8c0e-407b-8944-e8550632a107#_summary
213,CHEMBL477772,association,KRAS,https://www.ncbi.nlm.nih.gov/pubmed/26324075.0,http://www.dgidb.org/interactions/c2302af1-25c8-4c3e-9327-ca736f5a424d#_summary
214,CHEMBL1431,association,KRAS,https://www.ncbi.nlm.nih.gov/pubmed/24077915.0,http://www.dgidb.org/interactions/6e281998-a4df-477e-827e-7fe2df092088#_summary
215,CHEMBL23293,association,KRAS,https://www.ncbi.nlm.nih.gov/pubmed/21847063.0,http://www.dgidb.org/interactions/4e33a3c0-69fc-4883-aba0-58aed89a2b6b#_summary
216,CHEMBL3545246,association,KRAS,https://www.ncbi.nlm.nih.gov/pubmed/nan,http://www.dgidb.org/interactions/90eb0eab-4a4b-41ce-9dd8-f4055f77b7d4#_summary
217,CHEMBL1201182,association,KRAS,https://www.ncbi.nlm.nih.gov/pubmed/21216929.0,http://www.dgidb.org/interactions/027d2f94-6848-4fea-8240-1c7e21a04271#_summary
218,CHEMBL3545055,association,KRAS,https://www.ncbi.nlm.nih.gov/pubmed/nan,http://www.dgidb.org/interactions/b921268d-c108-4ab5-a700-a34baaa75c3d#_summary
219,CHEMBL3545248,association,KRAS,https://www.ncbi.nlm.nih.gov/pubmed/24504419.0,http://www.dgidb.org/interactions/d2d7bcaf-8e42-4da5-bf6e-ee3049f7d12a#_summary
220,CHEMBL392068,association,KRAS,https://www.ncbi.nlm.nih.gov/pubmed/26855149.0,http://www.dgidb.org/interactions/10a89c2b-f6a3-40a6-9be6-e3dba16a222b#_summary
221,CHEMBL2146883,association,KRAS,https://www.ncbi.nlm.nih.gov/pubmed/25609064.0,http://www.dgidb.org/interactions/da3d38ab-18ec-4a29-9d9e-92f0132c574f#_summary
222,CHEMBL3545137,association,KRAS,https://www.ncbi.nlm.nih.gov/pubmed/26140595.0,http://www.dgidb.org/interactions/a07a72ea-bec1-4bf8-a26d-d214ceffea4d#_summary
223,CHEMBL1173655,association,KRAS,https://www.ncbi.nlm.nih.gov/pubmed/26341921.0,http://www.dgidb.org/interactions/ed2a01fb-6edd-48af-9a9d-6cc0d71c4e13#_summary
224,CHEMBL2396661,association,KRAS,https://www.ncbi.nlm.nih.gov/pubmed/27659046.0,http://www.dgidb.org/interactions/6fed71b4-c110-4ac8-ae5f-9196248a55f7#_summary
225,CHEMBL601719,association,KRAS,https://www.ncbi.nlm.nih.gov/pubmed/27338794.0,http://www.dgidb.org/interactions/34170d68-cd7e-4994-9a81-d88704e05957#_summary
226,CHEMBL2017974,association,KRAS,https://www.ncbi.nlm.nih.gov/pubmed/26715098.0,http://www.dgidb.org/interactions/250d00d2-51ea-4376-ad70-f193e0c0d4a0#_summary
227,CHEMBL535,association,KRAS,https://www.ncbi.nlm.nih.gov/pubmed/26864210.0,http://www.dgidb.org/interactions/44a0a0ca-fe22-49f4-85d3-8745b2bd288d#_summary
228,CHEMBL170988,association,KRAS,https://www.ncbi.nlm.nih.gov/pubmed/26574479.0,http://www.dgidb.org/interactions/7a2ccd70-ea82-4fb5-b23a-ea8c366ca440#_summary
229,CHEMBL98350,association,KRAS,https://www.ncbi.nlm.nih.gov/pubmed/22871572.0,http://www.dgidb.org/interactions/49a3dc9b-80d5-4123-b264-1596adbe7b65#_summary
230,CHEMBL3545424,association,KRAS,https://www.ncbi.nlm.nih.gov/pubmed/26725216.0,http://www.dgidb.org/interactions/b4a87773-9da9-4a29-9618-9dc4598739b0#_summary
231,CHEMBL2107832,association,KRAS,https://www.ncbi.nlm.nih.gov/pubmed/23629727.0,http://www.dgidb.org/interactions/00dbff53-1b2b-45cb-83e2-9fe80ca35900#_summary
232,CHEMBL1171837,association,KRAS,https://www.ncbi.nlm.nih.gov/pubmed/27338794.0,http://www.dgidb.org/interactions/27ea90ac-31a7-441c-b518-1b51a99b176b#_summary
233,CHEMBL1374379,association,KRAS,https://www.ncbi.nlm.nih.gov/pubmed/26725216.0,http://www.dgidb.org/interactions/ae405b71-be70-4cde-94e1-d2efc3091195#_summary
234,CHEMBL428647,association,KRAS,https://www.ncbi.nlm.nih.gov/pubmed/16043828.0,http://www.dgidb.org/interactions/30fe3888-f0ec-40c4-ae91-d0e88806b30f#_summary
235,CHEMBL387187,association,KRAS,https://www.ncbi.nlm.nih.gov/pubmed/26739882.0,http://www.dgidb.org/interactions/a3f0061b-3d65-4edf-900e-c80f1d3e1ddf#_summary
236,CHEMBL1684984,association,KRAS,https://www.ncbi.nlm.nih.gov/pubmed/22159814.0,http://www.dgidb.org/interactions/3f360a88-55a0-4502-9e22-f8fbfa8fc005#_summary
237,CHEMBL3545376,association,KRAS,https://www.ncbi.nlm.nih.gov/pubmed/28341788.0,http://www.dgidb.org/interactions/4b605045-10c4-4746-b5b8-cbf1eac9a9d7#_summary
238,CHEMBL3545110,association,KRAS,https://www.ncbi.nlm.nih.gov/pubmed/25609064.0,http://www.dgidb.org/interactions/db1b1b0c-b088-456f-b68c-3218c7f5b46b#_summary
239,CHEMBL513909,association,KRAS,https://www.ncbi.nlm.nih.gov/pubmed/26597303.0,http://www.dgidb.org/interactions/42f7e35a-86f3-4a73-b819-8b09ee6c994d#_summary
240,CHEMBL411907,association,KRAS,https://www.ncbi.nlm.nih.gov/pubmed/18493606.0,http://www.dgidb.org/interactions/22be7ca7-f8f5-49dc-a15f-28b0835b2f3f#_summary
241,CHEMBL2028663,association,KRAS,https://www.ncbi.nlm.nih.gov/pubmed/27312529.0,http://www.dgidb.org/interactions/d0f8fa6e-40fb-43df-8654-a65a7b1e6fd3#_summary
242,CHEMBL255863,association,KRAS,https://www.ncbi.nlm.nih.gov/pubmed/26725216.0,http://www.dgidb.org/interactions/e60b6492-18a0-4cd9-91dd-5975f30c4493#_summary
243,CHEMBL3301612,association,KRAS,https://www.ncbi.nlm.nih.gov/pubmed/25673644.0,http://www.dgidb.org/interactions/748213ce-6b17-4769-9df4-ca9739aa1a33#_summary
244,CHEMBL1801204,association,KRAS,https://www.ncbi.nlm.nih.gov/pubmed/22271687.0,http://www.dgidb.org/interactions/204c2155-bf90-4b54-bffb-52ab234d2e41#_summary
245,CHEMBL65,association,KRAS,https://www.ncbi.nlm.nih.gov/pubmed/24042735.0,http://www.dgidb.org/interactions/84c8c5a5-a28c-43a2-8fca-b190d2b54927#_summary
246,CHEMBL3120215,association,KRAS,https://www.ncbi.nlm.nih.gov/pubmed/21673091.0,http://www.dgidb.org/interactions/35e57750-7b13-4119-ba28-5c38d7c08a7a#_summary
247,CHEMBL507361,association,KRAS,https://www.ncbi.nlm.nih.gov/pubmed/26272063.0,http://www.dgidb.org/interactions/93a7d872-ee08-4636-92f4-1fe52eb395a1#_summary
248,CHEMBL553,association,KRAS,https://www.ncbi.nlm.nih.gov/pubmed/27659046.0,http://www.dgidb.org/interactions/56d27b22-de6c-4b88-8b97-6f834ae2900f#_summary
249,CHEMBL1079175,association,KRAS,https://www.ncbi.nlm.nih.gov/pubmed/26676756.0,http://www.dgidb.org/interactions/8cd448ed-bbcb-4507-862d-dcb252224d42#_summary
250,CHEMBL3545056,association,KRAS,https://www.ncbi.nlm.nih.gov/pubmed/26272063.0,http://www.dgidb.org/interactions/e2ce4d20-d940-4762-9677-206579694373#_summary
251,CHEMBL575448,association,KRAS,https://www.ncbi.nlm.nih.gov/pubmed/26725216.0,http://www.dgidb.org/interactions/39fe521d-5d55-4757-8936-4dc30a9e456b#_summary
252,CHEMBL3544964,association,KRAS,https://www.ncbi.nlm.nih.gov/pubmed/15483017.0,http://www.dgidb.org/interactions/4ac9b596-9185-4ee7-8149-545c44718a2e#_summary
253,CHEMBL379300,association,KRAS,https://www.ncbi.nlm.nih.gov/pubmed/24978597.0,http://www.dgidb.org/interactions/20e8ab05-cdbb-41fd-b6e2-4b377c1ef0d6#_summary
254,CHEMBL3545212,association,KRAS,https://www.ncbi.nlm.nih.gov/pubmed/27196782.0,http://www.dgidb.org/interactions/a8bb959e-09d1-4c11-8fab-5243ff92d687#_summary
255,CHEMBL1201585,association,KRAS,https://www.ncbi.nlm.nih.gov/pubmed/27108243.0,http://www.dgidb.org/interactions/a0dc16ca-4b8e-4c4f-a6f3-07193d48ae15#_summary
592,CHEMBL1221601,inhibitor,ATM,https://www.ncbi.nlm.nih.gov/pubmed/nan,http://www.dgidb.org/interactions/80cbae09-dcfb-468c-a164-1453d25ba75d#_summary
593,CHEMBL222102,inhibitor,ATM,https://www.ncbi.nlm.nih.gov/pubmed/nan,http://www.dgidb.org/interactions/49dc31fd-e969-4c8c-a7fd-3572e5430b87#_summary
594,CHEMBL109,association,ATM,https://www.ncbi.nlm.nih.gov/pubmed/20739657.0,http://www.dgidb.org/interactions/fb3c116c-df8f-4af5-a162-7b35c81b8b2a#_summary
595,CHEMBL188678,association,ATM,https://www.ncbi.nlm.nih.gov/pubmed/23761041.0,http://www.dgidb.org/interactions/fa21922f-6fb7-48a4-bd45-1eff05daac1d#_summary
596,CHEMBL1173055,association,ATM,https://www.ncbi.nlm.nih.gov/pubmed/nan,http://www.dgidb.org/interactions/9895f094-299f-4ac4-accd-696f6791b532#_summary
597,CHEMBL487253,association,ATM,https://www.ncbi.nlm.nih.gov/pubmed/20739657.0,http://www.dgidb.org/interactions/fbcc01be-cedc-42a5-ad2c-0e1d9f4086db#_summary
598,CHEMBL3545178,association,ATM,https://www.ncbi.nlm.nih.gov/pubmed/26563132.0,http://www.dgidb.org/interactions/04762f64-c493-4599-bdc6-b1ea26417958#_summary
599,CHEMBL506871,association,ATM,https://www.ncbi.nlm.nih.gov/pubmed/21300883.0,http://www.dgidb.org/interactions/c56bc86c-e2dc-4dbb-805d-1273d84ce8d3#_summary
600,CHEMBL810,association,ATM,https://www.ncbi.nlm.nih.gov/pubmed/23960094.0,http://www.dgidb.org/interactions/d8490ad8-fb12-4231-938b-84c6316687ec#_summary
601,CHEMBL1086377,association,ATM,https://www.ncbi.nlm.nih.gov/pubmed/23761041.0,http://www.dgidb.org/interactions/f5312fc6-2852-4358-9238-5adc3df2f203#_summary
602,CHEMBL1873475,association,ATM,https://www.ncbi.nlm.nih.gov/pubmed/26563132.0,http://www.dgidb.org/interactions/2004c929-b6a8-4260-8046-77d77b22be85#_summary
603,CHEMBL1614701,association,ATM,https://www.ncbi.nlm.nih.gov/pubmed/27922010.0,http://www.dgidb.org/interactions/be8b583f-11b4-40ad-9257-f451fbc681d1#_summary
604,CHEMBL24828,association,ATM,https://www.ncbi.nlm.nih.gov/pubmed/27683183.0,http://www.dgidb.org/interactions/afba108a-95da-48c0-b666-1af4fc787cba#_summary
605,CHEMBL3187723,association,ATM,https://www.ncbi.nlm.nih.gov/pubmed/28514312.0,http://www.dgidb.org/interactions/26fdc522-35dc-41a7-8380-73d4d5294193#_summary
606,CHEMBL428647,association,ATM,https://www.ncbi.nlm.nih.gov/pubmed/26282658.0,http://www.dgidb.org/interactions/2a85f6ff-7016-4827-b421-6b99556463e7#_summary
607,CHEMBL3137320,association,ATM,https://www.ncbi.nlm.nih.gov/pubmed/23881923.0,http://www.dgidb.org/interactions/974c9d29-5917-4d67-8f94-45979af0300e#_summary
608,CHEMBL2103875,association,ATM,https://www.ncbi.nlm.nih.gov/pubmed/27922010.0,http://www.dgidb.org/interactions/15dde930-d16b-4891-b7ea-edb1ac9a5449#_summary
609,CHEMBL3545202,association,ATM,https://www.ncbi.nlm.nih.gov/pubmed/28363999.0,http://www.dgidb.org/interactions/cb1a6363-f3c5-44f2-9675-f69d0b138f18#_summary
610,CHEMBL1094636,association,ATM,https://www.ncbi.nlm.nih.gov/pubmed/nan,http://www.dgidb.org/interactions/cd921644-274c-4ac6-bac3-d2fe7f2b7831#_summary
611,CHEMBL521686,association,ATM,https://www.ncbi.nlm.nih.gov/pubmed/20739657.0,http://www.dgidb.org/interactions/62e7d1fe-2b0b-4518-be6b-78b6a6d8e146#_summary
612,CHEMBL481,association,ATM,https://www.ncbi.nlm.nih.gov/pubmed/27638859.0,http://www.dgidb.org/interactions/931a3d8d-6005-4d4e-82b4-386ebee245d4#_summary
613,CHEMBL2165191,association,ATM,https://www.ncbi.nlm.nih.gov/pubmed/26563132.0,http://www.dgidb.org/interactions/d6a69b7e-6aca-42c4-8bd8-6ac32a2ef5a3#_summary
614,CHEMBL1568,association,ATM,https://www.ncbi.nlm.nih.gov/pubmed/20739657.0,http://www.dgidb.org/interactions/16814bda-4c55-4517-89fb-43abd2a3e1ae#_summary
615,CHEMBL1908360,association,ATM,https://www.ncbi.nlm.nih.gov/pubmed/27683183.0,http://www.dgidb.org/interactions/aa4cdc2c-4f63-4d48-bd77-f42def729785#_summary
616,CHEMBL240773,association,ATM,https://www.ncbi.nlm.nih.gov/pubmed/nan,http://www.dgidb.org/interactions/fb57cb12-d1cd-4010-a8e3-4bf3a8ebd83e#_summary
909,CHEMBL3545396,inhibitor,ERBB4,https://www.ncbi.nlm.nih.gov/pubmed/nan,http://www.dgidb.org/interactions/7493f58c-d306-42c8-895c-58c2eeb4a4c5#_summary
910,CHEMBL1645462,inhibitor,ERBB4,https://www.ncbi.nlm.nih.gov/pubmed/nan,http://www.dgidb.org/interactions/8449dbd6-bde9-47f0-a82b-415271ccf038#_summary
911,CHEMBL2110732,inhibitor,ERBB4,https://www.ncbi.nlm.nih.gov/pubmed/nan,http://www.dgidb.org/interactions/e26713ac-40b1-4d24-ad3d-3e19c44dfa4b#_summary
912,CHEMBL1873475,inhibitor,ERBB4,https://www.ncbi.nlm.nih.gov/pubmed/nan,http://www.dgidb.org/interactions/47b689c6-709a-4387-9109-c344999ebf79#_summary
913,CHEMBL3545154,inhibitor,ERBB4,https://www.ncbi.nlm.nih.gov/pubmed/nan,http://www.dgidb.org/interactions/08efc47d-e174-4045-b9fa-ae878ca33be2#_summary
914,CHEMBL1229592,inhibitor,ERBB4,https://www.ncbi.nlm.nih.gov/pubmed/nan,http://www.dgidb.org/interactions/dd12430c-e6e0-4921-adc9-80ff0727371f#_summary
915,CHEMBL3707348,inhibitor,ERBB4,https://www.ncbi.nlm.nih.gov/pubmed/nan,http://www.dgidb.org/interactions/9900026b-bf8a-44b9-a688-afa758e55522#_summary
916,CHEMBL587723,inhibitor,ERBB4,https://www.ncbi.nlm.nih.gov/pubmed/nan,http://www.dgidb.org/interactions/2077726e-d1a8-4eaf-bf35-ccd170ae4f5c#_summary
917,CHEMBL1173655,inhibitor,ERBB4,https://www.ncbi.nlm.nih.gov/pubmed/27207775.0,http://www.dgidb.org/interactions/07e7c97f-10b0-469f-8c88-a4d79c1d297f#_summary
918,CHEMBL2105712,inhibitor,ERBB4,https://www.ncbi.nlm.nih.gov/pubmed/nan,http://www.dgidb.org/interactions/475997ea-34c0-421a-ad1c-30fcff020d67#_summary
919,CHEMBL3545063,inhibitor,ERBB4,https://www.ncbi.nlm.nih.gov/pubmed/nan,http://www.dgidb.org/interactions/ba5bdc15-dd55-459d-8259-0d0b0bce924f#_summary
920,CHEMBL3545133,inhibitor,ERBB4,https://www.ncbi.nlm.nih.gov/pubmed/nan,http://www.dgidb.org/interactions/8941ec87-d3e1-46b4-a6bb-cd65c1a09c2a#_summary
921,CHEMBL545315,inhibitor,ERBB4,https://www.ncbi.nlm.nih.gov/pubmed/nan,http://www.dgidb.org/interactions/19236cf4-b0fa-498c-813f-8589db9b678a#_summary
922,CHEMBL2105719,inhibitor,ERBB4,https://www.ncbi.nlm.nih.gov/pubmed/nan,http://www.dgidb.org/interactions/bba69917-13fb-433b-9c90-da951c920b89#_summary
923,CHEMBL607707,inhibitor,ERBB4,https://www.ncbi.nlm.nih.gov/pubmed/nan,http://www.dgidb.org/interactions/0b1159da-ea61-4694-a5bc-f8a78bcfed87#_summary
924,CHEMBL24828,inhibitor,ERBB4,https://www.ncbi.nlm.nih.gov/pubmed/nan,http://www.dgidb.org/interactions/b4e95d39-1893-4a0b-8a99-26309b252b2f#_summary
925,CHEMBL939,inhibitor,ERBB4,https://www.ncbi.nlm.nih.gov/pubmed/nan,http://www.dgidb.org/interactions/9725d525-4d67-4c54-8066-7e48f5fa61c6#_summary
926,CHEMBL1200731,association,ERBB4,https://www.ncbi.nlm.nih.gov/pubmed/nan,http://www.dgidb.org/interactions/98ee33ff-020e-46e2-b676-d7a27c05da7b#_summary
927,CHEMBL1201577,association,ERBB4,https://www.ncbi.nlm.nih.gov/pubmed/27207775.0,http://www.dgidb.org/interactions/15d33500-b6e4-4863-833e-00bcf54421fd#_summary
928,CHEMBL2221250,association,ERBB4,https://www.ncbi.nlm.nih.gov/pubmed/nan,http://www.dgidb.org/interactions/d92024f1-b711-44ce-a32e-184be3f2fb34#_summary
929,CHEMBL1219,association,ERBB4,https://www.ncbi.nlm.nih.gov/pubmed/nan,http://www.dgidb.org/interactions/fa04dd7d-e5aa-44d5-aa6b-ad49e3b68224#_summary
930,CHEMBL554,association,ERBB4,https://www.ncbi.nlm.nih.gov/pubmed/25590338.0,http://www.dgidb.org/interactions/80045b93-4a41-4efd-9dfb-cd849b07a3c2#_summary
931,CHEMBL3039542,association,ERBB4,https://www.ncbi.nlm.nih.gov/pubmed/nan,http://www.dgidb.org/interactions/a59ce827-38c7-44a9-9f5f-dd5594a61573#_summary
932,CHEMBL553,association,ERBB4,https://www.ncbi.nlm.nih.gov/pubmed/27207775.0,http://www.dgidb.org/interactions/2b648e72-70c8-4dc4-a643-2883c43de8cf#_summary
